<?xml version="1.0" standalone="no"?> <!DOCTYPE svg PUBLIC "-//W3C//DTD SVG 1.0//EN" "http://www.w3.org/TR/2001/REC-SVG-20010904/DTD/svg10.dtd" > 
<svg xmlns="http://www.w3.org/2000/svg" width="100%" height="100%">
<metadata version="1.0"><uniqueid id="com.myfonts.linotype.neue-helvetica.helvetica-25-ultra-light.wfkit2.gGYB"/><vendor name="MyFonts" url="http://www.myfonts.com/"/><credits><credit name="Edouard Hoffmann" url="http://www.myfonts.com/person/hoffmann/edouard/"/><credit name="Max Miedinger" url="http://www.myfonts.com/person/miedinger/max/"/></credits><description><text lang="en">This is a Webfont from MyFonts. Full information about this font:
http://www.myfonts.com/fonts/linotype/neue-helvetica/
</text></description><license url="http://www.myfonts.com/viewlicense?lid=1631"/><copyright><text lang="en">Copyright © 1988, 1990, 1993, 2002 Adobe Systems Incorporated.  All Rights Reserved. © 1981, 2002 Heidelberger Druckmaschinen AG. All rights reserved.</text></copyright><trademark><text lang="en">Helvetica is a trademark of Heidelberger Druckmaschinen AG, exclusively licensed through Linotype Library GmbH, and may be registered in certain jurisdictions.</text></trademark></metadata>
<defs >
<font id="wf" horiz-adv-x="395" ><font-face
    font-family="HelveticaNeueLT Std UltLt"
    units-per-em="1000"
    panose-1="2 11 3 3 2 2 2 2 2 4"
    ascent="791"
    descent="-209"
    alphabetic="0" />
<missing-glyph horiz-adv-x="500" d="M0 0V700H500V0H0ZM250 395L420 650H80L250 395ZM280 350L450 95V605L280 350ZM80 50H420L250 305L80 50ZM50 605V95L220 350L50 605Z" />
<glyph unicode=" " glyph-name="space" horiz-adv-x="278" />
<glyph unicode="!" glyph-name="exclam" horiz-adv-x="185" d="M103 0H83V98H103V0ZM103 182H83V714H103V182Z" />
<glyph unicode="&quot;" glyph-name="quotedbl" horiz-adv-x="278" d="M93 714V489H73V714H93ZM205 714V489H185V714H205Z" />
<glyph unicode="#" glyph-name="numbersign" horiz-adv-x="556" d="M225 680H245L214 446H385L416 680H436L405 446H521V426H400L376 249H493V229H372L341 0H321L352 229H180L149 0H129L160 229H35V249H165L189 426H63V446H194L225 680ZM209 426L185 249H356L380
426H209Z" />
<glyph unicode="$" glyph-name="dollar" horiz-adv-x="556" d="M267 381V711Q211 710 165 697T84 645T49 547Q49 522 56 502T72 467T100 440T133 420T175 404T219 392T267 381ZM8 237H28Q28 12 267 4V360Q154 386 114 406Q29 450 29 547Q29 597 50 634T106 691T182
721T267 731V774H287V730Q515 725 525 514H505Q498 705 287 710V376L295 374Q305 372 323 367Q357 358 373 354T418 340T459 323T491 300T517 268T532 228T539 175Q539 81 464 32T287 -17V-105H267V-16Q146 -11 76 51T8 237ZM287 355V3Q381 3 450 46T519 176Q519
196 515 213T506 244T489 270T469 290T442 307T415 320T383 331T353 339T319 347T287 355Z" />
<glyph unicode="%" glyph-name="percent" horiz-adv-x="685" d="M377 157Q377 93 411 51T509 8T608 51T644 157Q644 228 610 269T509 310Q443 310 410 269T377 157ZM357 157Q357 234 397 282T509 330Q583 330 623 283T664 158Q664 86 623 37T509 -12Q435 -12 396
37T357 157ZM21 519Q21 596 61 644T173 692Q247 692 287 645T328 520Q328 448 287 399T173 350Q99 350 60 399T21 519ZM41 519Q41 455 75 413T173 370T272 413T308 519Q308 590 274 631T173 672Q107 672 74 631T41 519ZM88 -34L564 714H587L111 -34H88Z" />
<glyph unicode="&amp;" glyph-name="ampersand" horiz-adv-x="574" d="M150 583Q150 551 170 518T253 404Q255 405 273 417T295 432T316 448T339 466T358 485T376 507T389 529T399 555T402 581Q402 632 366 663T277 694Q223 694 187 664T150 583ZM444 132L248
378Q247 377 224 363T198 346T174 330T148 311T127 292T105 270T89 247T75 220T68 192T64 160Q64 87 119 45T248 3Q380 3 444 132ZM467 133L572 0H546L457 113Q386 -17 248 -17Q168 -17 106 32T44 160Q44 193 57 224T85 276T133 322T182 359T236 394Q227 406 204
436T168 484T142 530T130 581Q130 645 173 679T276 714Q338 714 380 678T422 581Q422 558 414 537T397 501T367 468T336 440T299 413T265 389L453 151Q480 210 477 277H497Q498 203 467 133Z" />
<glyph unicode="&apos;" glyph-name="quotesingle" horiz-adv-x="167" d="M74 489V714H94V489H74Z" />
<glyph unicode="(" glyph-name="parenleft" horiz-adv-x="222" d="M184 731H204Q88 516 88 282Q88 36 205 -177H185Q125 -60 97 48T68 282Q68 516 184 731Z" />
<glyph unicode=")" glyph-name="parenright" horiz-adv-x="222" d="M38 -177H18Q134 38 134 272Q134 518 17 731H37Q97 614 125 506T154 272Q154 38 38 -177Z" />
<glyph unicode="*" glyph-name="asterisk" horiz-adv-x="352" d="M164 714H184V574L316 617L320 598L190 555L273 446L257 434L174 542L90 438L74 451L162 555L32 598L38 617L164 574V714Z" />
<glyph unicode="+" glyph-name="plus" horiz-adv-x="600" d="M290 263V506H310V263H552V243H310V0H290V243H48V263H290Z" />
<glyph unicode="," glyph-name="comma" horiz-adv-x="278" d="M129 98H149V0Q149 -88 105 -119V-99Q129 -75 129 0V98Z" />
<glyph unicode="-" glyph-name="hyphen" horiz-adv-x="333" d="M79 258V278H254V258H79Z" />
<glyph unicode="." glyph-name="period" horiz-adv-x="278" d="M149 98V0H129V98H149Z" />
<glyph unicode="/" glyph-name="slash" horiz-adv-x="333" d="M13 -17H-7L320 731H340L13 -17Z" />
<glyph unicode="0" glyph-name="zero" horiz-adv-x="556" d="M515 278T515 340T504 456T467 561T393 642T278 672T164 642T90 562T53 457T41 340T52 224T89 119T163 38T278 8T392 38T466 118T503 223ZM535 408T535 340T522 213T480 101T400 19T278 -12T156 18T76
101T35 212T21 340T34 467T76 579T156 661T278 692T400 662T480 579T521 468Z" />
<glyph unicode="1" glyph-name="one" horiz-adv-x="556" d="M298 0V654H296Q266 613 217 581T115 534V554Q174 574 212 601T296 680H318V0H298Z" />
<glyph unicode="2" glyph-name="two" horiz-adv-x="556" d="M75 20H513V0H55Q55 17 58 33T66 63T81 92T99 118T123 144T148 167T178 191T207 212T238 235T269 256Q317 289 346 312T409 368T459 436T475 509Q475 586 423 629T286 672Q184 672 136 614T87 457H67Q68
570 123 631T286 692Q377 692 436 645T495 509Q495 469 479 432T431 361T368 303T291 246Q249 217 238 209T192 176T146 138T114 103T86 61T75 20Z" />
<glyph unicode="3" glyph-name="three" horiz-adv-x="556" d="M86 469H66Q65 577 127 634T298 692Q388 692 449 651T511 525Q511 455 471 414T365 367V365Q432 358 478 314T524 188Q524 97 457 43T294 -12Q176 -12 108 52T47 230H67Q59 124 121 66T294 8Q381 8
442 56T504 188Q504 271 452 312T309 356H260V376H309Q384 376 437 412T491 525Q490 601 434 636T298 672Q198 672 142 621T86 469Z" />
<glyph unicode="4" glyph-name="four" horiz-adv-x="556" d="M379 197V652H377L54 197H379ZM379 177H34V201L374 680H399V197H522V177H399V0H379V177Z" />
<glyph unicode="5" glyph-name="five" horiz-adv-x="556" d="M483 660H150L88 369H90Q146 461 276 461Q380 461 445 395T511 226Q511 118 446 53T276 -12Q168 -12 103 49T40 218H60Q57 120 116 64T276 8Q374 8 432 67T491 226Q491 321 432 381T276 441Q215 441
164 414T86 337H61L134 680H483V660Z" />
<glyph unicode="6" glyph-name="six" horiz-adv-x="556" d="M497 134T497 223T434 375T282 438T130 375T67 223T130 71T282 8T434 71ZM505 520H485Q475 564 454 595T405 642T350 665T294 672Q236 672 192 647T122 582T82 490T62 388T58 287H60Q75 360 138 409T282
458Q374 458 445 391T517 223Q517 123 448 56T282 -12Q217 -12 165 19T84 95Q39 164 39 321Q39 375 46 425T72 524T119 610T192 669T295 692Q381 692 437 644T505 520Z" />
<glyph unicode="7" glyph-name="seven" horiz-adv-x="556" d="M473 660H61V680H495V653Q345 503 267 348T188 0H168Q164 353 473 660Z" />
<glyph unicode="8" glyph-name="eight" horiz-adv-x="556" d="M505 190Q505 281 442 321T278 362T115 322T51 190Q51 98 115 53T278 8T440 53T505 190ZM351 375V373Q432 365 478 317T525 190Q525 90 455 39T278 -12T101 39T31 190Q31 268 77 316T205 373V375Q145
383 105 423T65 520Q65 607 124 649T278 692T432 650T491 520Q491 463 451 423T351 375ZM471 520Q471 600 416 636T278 672T140 636T85 520Q85 453 143 418T278 382T412 417T471 520Z" />
<glyph unicode="9" glyph-name="nine" horiz-adv-x="556" d="M51 160H71Q81 116 102 85T151 38T206 15T262 8Q320 8 364 33T434 98T474 190T494 292T498 393H496Q481 320 418 271T274 222Q182 222 111 289T39 457Q39 557 108 624T274 692Q339 692 391 661T472
585Q518 516 518 359Q518 291 505 229T465 111T385 22T261 -12Q175 -12 119 36T51 160ZM489 368T489 457T426 609T274 672T122 609T59 457T122 305T274 242T426 305Z" />
<glyph unicode=":" glyph-name="colon" horiz-adv-x="278" d="M149 0H129V98H149V0ZM149 416H129V514H149V416Z" />
<glyph unicode=";" glyph-name="semicolon" horiz-adv-x="278" d="M149 98V0Q149 -88 105 -119V-99Q129 -75 129 0V98H149ZM149 416H129V514H149V416Z" />
<glyph unicode="&lt;" glyph-name="less" horiz-adv-x="600" d="M554 13V-8L46 241V265L554 514V493L64 253L554 13Z" />
<glyph unicode="=" glyph-name="equal" horiz-adv-x="600" d="M552 340H48V360H552V340ZM552 146H48V166H552V146Z" />
<glyph unicode="&gt;" glyph-name="greater" horiz-adv-x="600" d="M46 13L536 253L46 493V514L554 265V241L46 -8V13Z" />
<glyph unicode="?" glyph-name="question" horiz-adv-x="500" d="M59 493H39Q35 599 93 665T256 731Q341 731 397 687T453 565Q453 532 444 504T419 454T391 419T361 391Q357 388 355 386Q297 330 277 291T256 182H236Q236 249 257 294T334 394Q335 395 350 407T376
432T402 464T425 510T433 565Q433 634 384 672T256 711Q159 711 107 652T59 493ZM256 0H236V98H256V0Z" />
<glyph unicode="@" glyph-name="at" horiz-adv-x="800" d="M488 272L559 456Q546 504 509 525T427 546Q339 546 277 458T214 277Q214 223 248 188T334 152Q442 152 488 272ZM570 481L594 547H615L504 259Q462 152 529 152Q595 152 658 229T723 411Q724 534 638
613T419 692Q274 692 176 593T77 353Q77 190 175 99T419 8Q507 8 583 52T709 166H732Q683 86 597 37T419 -12Q350 -12 287 10T172 75T88 190T57 353Q57 506 163 609T419 712Q557 712 649 630T743 411Q744 300 674 216T527 132Q497 132 480 150T468 195H466Q420
132 330 132Q272 132 233 174T194 277Q194 341 222 406T307 519T431 566Q479 566 517 543T568 481H570Z" />
<glyph unicode="A" glyph-name="A" horiz-adv-x="575" d="M114 255H462L292 694H290L114 255ZM470 235H106L11 0H-12L278 714H304L586 0H564L470 235Z" />
<glyph unicode="B" glyph-name="B" horiz-adv-x="611" d="M67 362V20H351Q442 20 499 64T557 193Q557 280 498 321T354 362H67ZM47 0V714H354Q442 714 498 668T555 536Q555 471 512 424T404 373V371Q477 369 527 321T577 194Q577 101 513 51T342 0H47ZM67 694V382H354Q430
382 482 422T535 536Q535 614 485 654T354 694H67Z" />
<glyph unicode="C" glyph-name="C" horiz-adv-x="685" d="M642 280H662Q643 145 561 64T348 -17Q206 -17 116 86T25 351Q25 405 36 457T74 559T137 647T233 708T361 731Q428 731 484 708T573 648T626 574T646 500H626Q619 583 546 647T361 711Q293 711 238 688T148
627T89 542T55 446T45 351Q45 207 127 105T348 3Q472 3 548 79T642 280Z" />
<glyph unicode="D" glyph-name="D" horiz-adv-x="648" d="M54 0V714H304Q362 714 412 697T508 642T581 531T608 357Q608 264 581 194T505 82T399 21T273 0H54ZM74 694V20H278Q413 20 500 106T588 357Q588 434 572 494T528 591T463 652T385 685T299 694H74Z" />
<glyph unicode="E" glyph-name="E" horiz-adv-x="537" d="M74 362V20H532V0H54V714H528V694H74V382H501V362H74Z" />
<glyph unicode="F" glyph-name="F" horiz-adv-x="481" d="M74 694V382H454V362H74V0H54V714H494V694H74Z" />
<glyph unicode="G" glyph-name="G" horiz-adv-x="722" d="M654 314H377V334H674V-1H654V177H652Q624 87 548 35T367 -17Q208 -17 120 89T32 357Q32 518 122 624T367 731Q486 731 566 666T663 491H643Q624 592 551 651T367 711Q222 711 137 610T52 357Q52 204 135
104T370 3Q490 3 572 81T654 277V314Z" />
<glyph unicode="H" glyph-name="H" horiz-adv-x="648" d="M574 362H74V0H54V714H74V382H574V714H594V0H574V362Z" />
<glyph unicode="I" glyph-name="I" horiz-adv-x="128" d="M54 0V714H74V0H54Z" />
<glyph unicode="J" glyph-name="J" horiz-adv-x="463" d="M384 201V714H404V186Q404 -17 208 -17Q111 -17 65 36T18 178V221H38V178Q38 3 208 3Q297 3 340 48T384 201Z" />
<glyph unicode="K" glyph-name="K" horiz-adv-x="593" d="M238 398L74 253V0H54V714H74V280L569 714H599L254 410L619 0H592L238 398Z" />
<glyph unicode="L" glyph-name="L" horiz-adv-x="481" d="M74 20H491V0H54V714H74V20Z" />
<glyph unicode="M" glyph-name="M" horiz-adv-x="780" d="M391 26L693 714H726V0H706V689H704L401 0H379L76 689H74V0H54V714H87L389 26H391Z" />
<glyph unicode="N" glyph-name="N" horiz-adv-x="648" d="M54 0V714H84L572 25H574V714H594V0H564L76 689H74V0H54Z" />
<glyph unicode="O" glyph-name="O" horiz-adv-x="721" d="M52 357Q54 200 137 102T361 3T585 101T670 357Q668 514 585 612T361 711T137 613T52 357ZM32 197T32 357T119 624T361 731T602 624T690 357T603 90T361 -17T120 90Z" />
<glyph unicode="P" glyph-name="P" horiz-adv-x="574" d="M74 694V345H343Q430 345 485 391T540 519Q540 604 490 649T343 694H74ZM74 325V0H54V714H343Q446 714 503 665T560 519Q560 427 498 376T333 325H74Z" />
<glyph unicode="Q" glyph-name="Q" horiz-adv-x="721" d="M553 70L427 156L438 172L567 83Q668 180 670 357Q668 514 585 612T361 711T137 613T52 357Q54 200 137 102T361 3Q475 3 553 70ZM689 -22L571 58Q486 -17 361 -17Q207 -17 120 90T32 357T119 624T361
731T602 624T690 357Q690 175 584 71L699 -8L689 -22Z" />
<glyph unicode="R" glyph-name="R" horiz-adv-x="611" d="M74 694V355H341Q427 355 486 400T544 533Q542 694 351 694H74ZM74 335V0H54V714H346Q456 714 509 669T564 531Q566 460 526 412T411 347V345Q496 334 524 288T552 147Q552 26 569 0H547Q532 38 532 150Q532
198 526 229T500 286T442 323T343 335H74Z" />
<glyph unicode="S" glyph-name="S" horiz-adv-x="611" d="M553 514H533Q526 711 301 711Q260 711 223 703T152 678T98 627T77 547Q77 528 81 512T90 483T107 459T128 439T154 423T183 411T216 400T250 391T287 383T323 374Q333 372 351 367Q385 358 401 354T446
340T487 323T519 300T545 268T560 228T567 175Q567 81 492 32T315 -17Q186 -17 110 45T36 237H56Q56 3 315 3Q409 3 478 46T547 176Q547 202 540 224T524 261T497 290T464 311T424 327T383 339T339 349T297 359Q185 385 148 403Q57 447 57 547Q57 598 78 635T136
693T214 722T301 731Q414 731 481 680T553 514Z" />
<glyph unicode="T" glyph-name="T" horiz-adv-x="500" d="M240 694H-17V714H517V694H260V0H240V694Z" />
<glyph unicode="U" glyph-name="U" horiz-adv-x="632" d="M558 266V714H578V266Q578 126 511 55T316 -17T122 54T54 266V714H74V266Q74 3 316 3T558 266Z" />
<glyph unicode="V" glyph-name="V" horiz-adv-x="538" d="M274 26L536 714H556L284 0H262L-18 714H2L272 26H274Z" />
<glyph unicode="W" glyph-name="W" horiz-adv-x="870" d="M661 25L860 714H880L673 0H646L436 689H434L228 0H201L-10 714H11L213 25H215L421 714H450L659 25H661Z" />
<glyph unicode="X" glyph-name="X" horiz-adv-x="520" d="M261 383L510 714H535L275 367L547 0H522L261 351L-2 0H-27L248 367L-12 714H14L261 383Z" />
<glyph unicode="Y" glyph-name="Y" horiz-adv-x="538" d="M269 322L544 714H568L279 301V0H259V301L-30 714H-5L269 322Z" />
<glyph unicode="Z" glyph-name="Z" horiz-adv-x="500" d="M1 20H508V0H-19V27L480 694H9V714H500V687L1 20Z" />
<glyph unicode="[" glyph-name="bracketleft" horiz-adv-x="222" d="M96 731H209V711H116V-157H209V-177H96V731Z" />
<glyph unicode="\" glyph-name="backslash" horiz-adv-x="333" d="M340 -17H320L-7 731H13L340 -17Z" />
<glyph unicode="]" glyph-name="bracketright" horiz-adv-x="222" d="M126 -177H13V-157H106V711H13V731H126V-177Z" />
<glyph unicode="^" glyph-name="asciicircum" horiz-adv-x="600" d="M310 680L541 227H521L300 660L79 227H59L290 680H310Z" />
<glyph unicode="_" glyph-name="underscore" horiz-adv-x="500" d="M500 -125H0V-75H500V-125Z" />
<glyph unicode="`" glyph-name="grave" horiz-adv-x="130" d="M101 587L-38 731H-9L116 587H101Z" />
<glyph unicode="a" glyph-name="a" horiz-adv-x="481" d="M400 207V302H398Q390 291 376 284T339 273T298 267T248 264T199 261Q164 258 140 253T91 234T55 193T42 127Q42 77 78 43T192 8Q288 8 344 67T400 207ZM74 355H54Q58 431 108 478T250 526Q416 526 420
379V52Q420 34 430 26T455 18T485 20V0Q465 -1 446 -1T414 12T400 50V117H398Q382 64 326 26T194 -12Q116 -12 69 24T22 127Q22 172 36 203T79 249T134 271T199 281Q324 288 350 296Q395 308 399 351Q400 357 400 364Q400 392 396 413T377 457T331 493T250 506Q170
506 125 467T74 355Z" />
<glyph unicode="b" glyph-name="b" horiz-adv-x="537" d="M75 256Q75 152 131 80T283 8Q378 8 430 79T482 256Q482 319 463 374T397 467T283 506Q188 506 132 440T75 256ZM75 714V370H77Q95 442 149 484T283 526Q385 526 443 448T502 256Q502 138 443 63T283 -12Q206
-12 152 31T77 144H75V0H55V714H75Z" />
<glyph unicode="c" glyph-name="c" horiz-adv-x="500" d="M449 175H469Q461 89 404 39T259 -12Q153 -12 92 62T31 246Q31 366 92 446T271 526Q346 526 401 482T465 358H445Q433 430 386 468T271 506Q212 506 168 483T100 421T63 338T51 246Q51 146 106 77T259
8Q336 8 389 53T449 175Z" />
<glyph unicode="d" glyph-name="d" horiz-adv-x="537" d="M455 256Q455 374 399 440T247 506Q180 506 134 468T68 374T48 256Q48 151 100 80T247 8Q343 8 399 80T455 256ZM455 370V714H475V0H455V144H453Q433 74 379 31T247 -12Q147 -12 88 63T28 256Q28 370 86
448T247 526Q327 526 381 484T453 370H455Z" />
<glyph unicode="e" glyph-name="e" horiz-adv-x="500" d="M45 273H455Q456 372 402 439T252 506Q167 506 109 443T45 273ZM475 253H45Q47 141 95 75T248 8Q329 8 382 52T449 178H469Q459 90 399 39T250 -12Q136 -13 81 61T25 257Q25 380 91 453T250 526Q327 526
380 487T455 387T475 253Z" />
<glyph unicode="f" glyph-name="f" horiz-adv-x="204" d="M87 494H-1V514H87V628Q87 657 96 675T122 702T153 712T188 714Q196 714 204 714T220 712T231 710V690Q206 694 184 694Q138 694 123 678T107 621V514H218V494H107V0H87V494Z" />
<glyph unicode="g" glyph-name="g" horiz-adv-x="519" d="M445 274Q446 369 394 437T249 506Q153 506 101 440T48 274T99 112T241 48Q337 48 391 112T445 274ZM446 17V172H444Q429 106 370 67T242 28Q140 28 84 98T28 274Q28 383 86 454T249 526Q321 526 375 484T444
377H446V514H466V17Q466 -86 411 -137T252 -189Q168 -189 113 -149T56 -27H76Q79 -99 127 -134T251 -169Q446 -169 446 17Z" />
<glyph unicode="h" glyph-name="h" horiz-adv-x="500" d="M55 0V714H75V387H77Q92 449 140 487T262 526Q344 526 394 477T445 341V0H425V338Q425 422 379 464T262 506Q174 506 125 444T75 291V0H55Z" />
<glyph unicode="i" glyph-name="i" horiz-adv-x="130" d="M75 514V0H55V514H75ZM75 714V613H55V714H75Z" />
<glyph unicode="j" glyph-name="j" horiz-adv-x="130" d="M75 514V-75Q75 -141 47 -158T-49 -177V-157Q15 -157 35 -143T55 -68V514H75ZM75 714V613H55V714H75Z" />
<glyph unicode="k" glyph-name="k" horiz-adv-x="444" d="M208 304L75 194V0H55V714H75V219L430 514H459L223 318L476 0H449L208 304Z" />
<glyph unicode="l" glyph-name="l" horiz-adv-x="130" d="M55 0V714H75V0H55Z" />
<glyph unicode="m" glyph-name="m" horiz-adv-x="778" d="M55 0V514H75V387H77Q92 447 137 486T241 526Q301 527 341 495T395 406H397Q412 460 457 493T560 526Q648 526 685 477T723 338V0H703V338Q703 421 671 463T560 506Q487 506 444 454T399 326V0H379V330Q380
411 350 458T241 506Q167 506 121 443T75 291V0H55Z" />
<glyph unicode="n" glyph-name="n" horiz-adv-x="500" d="M55 0V514H75V387H77Q92 449 140 487T262 526Q344 526 394 477T445 341V0H425V338Q425 422 379 464T262 506Q174 506 125 444T75 291V0H55Z" />
<glyph unicode="o" glyph-name="o" horiz-adv-x="519" d="M28 145T28 257T90 447T260 526Q367 526 429 447T491 257Q491 145 429 67T259 -12T90 66ZM48 257Q48 153 104 81T260 8Q358 8 414 81T471 257Q471 359 415 432T260 506Q161 506 105 433T48 257Z" />
<glyph unicode="p" glyph-name="p" horiz-adv-x="537" d="M283 8Q350 8 396 46T462 140T482 258Q482 363 430 434T283 506Q187 506 131 434T75 258Q75 140 131 74T283 8ZM75 144V-177H55V514H75V370H77Q97 440 151 483T283 526Q383 526 442 451T502 258Q502 144
444 66T283 -12Q203 -12 149 30T77 144H75Z" />
<glyph unicode="q" glyph-name="q" horiz-adv-x="537" d="M455 370V514H475V-177H455V144H453Q435 72 381 30T247 -12Q145 -12 87 66T28 258Q28 376 87 451T247 526Q324 526 378 483T453 370H455ZM455 258Q455 362 399 434T247 506Q152 506 100 435T48 258Q48
195 67 140T133 47T247 8Q342 8 398 74T455 258Z" />
<glyph unicode="r" glyph-name="r" horiz-adv-x="259" d="M75 291V0H55V514H75V387H77Q93 450 143 489T279 526V506Q180 511 128 447T75 291Z" />
<glyph unicode="s" glyph-name="s" horiz-adv-x="463" d="M410 362H390Q390 436 346 471T224 506Q174 506 140 493T93 458T75 422T70 397Q70 330 127 307Q144 300 259 269Q287 262 299 259T336 247T372 229T398 206T418 174T424 131Q424 82 396 49T327 2T238 -12Q30
-12 30 176H50Q50 92 98 50T238 8Q278 8 314 19T377 59T404 129Q404 142 401 154T395 175T382 192T368 206T348 218T328 228T304 236T280 243T253 250T227 256Q146 276 112 291Q50 318 50 397Q50 447 93 486T224 526T361 486T410 362Z" />
<glyph unicode="t" glyph-name="t" horiz-adv-x="241" d="M226 494H110V100Q110 73 116 56T133 31T154 22T179 20Q214 20 223 23V3Q187 0 174 0Q90 0 90 96V494H-5V514H90V676H110V514H226V494Z" />
<glyph unicode="u" glyph-name="u" horiz-adv-x="500" d="M445 514V0H425V127H423Q408 65 360 27T238 -12Q156 -12 106 37T55 173V514H75V176Q75 92 121 50T238 8Q326 8 375 70T425 223V514H445Z" />
<glyph unicode="v" glyph-name="v" horiz-adv-x="407" d="M213 20L397 514H419L225 0H200L-12 514H12L211 20H213Z" />
<glyph unicode="w" glyph-name="w" horiz-adv-x="685" d="M517 20L673 514H693L529 0H503L343 494H341L180 0H152L-8 514H12L165 20H167L326 514H357L515 20H517Z" />
<glyph unicode="x" glyph-name="x" horiz-adv-x="407" d="M203 281L380 514H404L216 266L422 0H397L203 251L10 0H-15L191 266L4 514H30L203 281Z" />
<glyph unicode="y" glyph-name="y" horiz-adv-x="407" d="M214 27L398 514H419L182 -105Q172 -130 159 -145T126 -167T91 -175T46 -177V-157Q101 -158 125 -147T166 -91L203 5L-12 514H10L214 27Z" />
<glyph unicode="z" glyph-name="z" horiz-adv-x="407" d="M26 20H402V0H5V25L365 494H32V514H386V489L26 20Z" />
<glyph unicode="{" glyph-name="braceleft" horiz-adv-x="333" d="M280 -177H230Q189 -177 173 -151T157 -66V97Q157 163 142 203T85 270V290Q116 295 136 344T157 457V622Q157 681 173 706T230 731H280V711H232Q202 711 190 688T177 604V440Q177 389 159 341T105
278Q138 262 157 217T177 114V-48Q177 -112 189 -134T232 -157H280V-177Z" />
<glyph unicode="|" glyph-name="bar" horiz-adv-x="222" d="M121 -214H101V786H121V-214Z" />
<glyph unicode="}" glyph-name="braceright" horiz-adv-x="333" d="M53 731H103Q144 731 160 705T176 620V457Q176 391 191 351T248 284V264Q217 259 197 210T176 97V-68Q176 -127 160 -152T103 -177H53V-157H101Q131 -157 143 -134T156 -50V114Q156 165 174 213T228
276Q195 292 176 337T156 440V602Q156 666 144 688T101 711H53V731Z" />
<glyph unicode="~" glyph-name="asciitilde" horiz-adv-x="600" d="M503 301L523 295Q498 255 474 232T414 209Q402 209 389 212T367 219T341 230T317 241Q314 242 300 249T281 258T263 265T242 272T221 276T195 278Q139 278 97 205L77 211Q123 298 195 298Q234
300 312 264Q394 229 415 229Q434 229 451 241T478 265T503 301Z" />
<glyph unicode="&#xa0;" glyph-name="uni00A0" horiz-adv-x="278" />
<glyph unicode="&#xa1;" glyph-name="exclamdown" horiz-adv-x="185" d="M83 542H103V444H83V542ZM83 360H103V-177H83V360Z" />
<glyph unicode="&#xa2;" glyph-name="cent" horiz-adv-x="556" d="M272 8V505Q179 501 129 429T79 258Q79 158 129 85T272 8ZM292 505V8H297Q370 8 419 55T477 175H497Q487 88 431 39T292 -12V-121H272V-12Q170 -8 115 70T59 258Q59 364 115 442T272 525V613H292V525Q373
523 428 480T492 358H472Q461 429 413 466T292 505Z" />
<glyph unicode="&#xa3;" glyph-name="sterling" horiz-adv-x="556" d="M138 365H296V345H147Q177 292 177 209Q177 102 78 18L80 16Q129 53 182 53Q211 53 281 29Q347 3 377 3Q421 3 453 22T530 86L543 72Q500 23 462 3T377 -17Q340 -17 277 8Q202 33 182 33Q118
33 57 -17L39 3Q157 103 157 209Q157 291 125 345H49V365H115Q111 374 94 405T69 453T53 496T45 545Q45 635 110 683T271 731Q387 731 450 663T501 480H481Q491 590 433 650T271 711Q185 711 125 670T65 545Q65 523 73 497T90 453T115 406T138 365Z" />
<glyph unicode="&#xa4;" glyph-name="currency" horiz-adv-x="556" d="M446 522L503 579L517 565L460 508Q526 438 526 340Q526 244 460 172L517 115L503 101L446 158Q376 94 278 92Q182 92 110 158L53 101L39 115L96 172Q30 244 30 340Q32 438 96 508L39 565L53
579L110 522Q182 588 278 588Q376 588 446 522ZM506 246T506 340T439 501T278 568T117 501T50 340T117 179T278 112T439 179Z" />
<glyph unicode="&#xa5;" glyph-name="yen" horiz-adv-x="556" d="M287 305V203H434V183H287V0H267V183H120V203H267V305H120V325H258L21 714H43L277 331H279L513 714H535L298 325H434V305H287Z" />
<glyph unicode="&#xa6;" glyph-name="brokenbar" horiz-adv-x="222" d="M121 161V-89H101V161H121ZM101 661H121V411H101V661Z" />
<glyph unicode="&#xa7;" glyph-name="section" horiz-adv-x="556" d="M442 546H422Q420 624 381 667T269 711Q238 711 209 702T156 666T133 596Q135 537 190 497Q217 478 260 454T325 416Q431 348 465 306T499 204Q499 155 460 117T382 68Q446 15 441 -55Q436
-121 390 -155T278 -189Q193 -189 147 -138T103 5H123Q122 -76 159 -122T278 -169Q348 -170 384 -133T421 -55Q421 -13 407 12T341 74Q317 91 254 130T165 187Q99 231 78 267T57 350Q57 395 89 434T166 489Q113 534 113 598Q113 637 129 665T172 707T223 725T271
731Q349 731 395 681T442 546ZM479 205Q479 256 446 295T314 399Q296 410 246 438T184 475Q164 469 143 456T99 412T77 342Q77 268 177 203Q350 92 363 82Q402 91 440 124T479 205Z" />
<glyph unicode="&#xa8;" glyph-name="dieresis" horiz-adv-x="130" d="M-3 590H-23V671H-3V590ZM153 590H133V671H153V590Z" />
<glyph unicode="&#xa9;" glyph-name="copyright" horiz-adv-x="800" d="M593 428H573Q564 491 518 525T408 559Q316 559 264 501T211 352T265 201T411 140Q468 140 513 176T573 276H593Q577 206 528 163T411 120Q312 120 252 186T191 351Q191 451 249 515T408
579Q481 579 532 539T593 428ZM26 202T26 357T135 621T400 731T664 622T774 357T665 93T400 -17T136 92ZM46 504T46 357T149 107T400 3T650 106T754 357T651 607T400 711T150 608Z" />
<glyph unicode="&#xaa;" glyph-name="ordfeminine" horiz-adv-x="300" d="M246 504V552H244Q239 545 231 541T209 534T185 530T154 528T123 526Q74 521 47 506T20 451Q20 418 46 403T112 387Q175 387 210 420T246 504ZM300 394V374Q284 373 275 374T256 382T246
405V446H244V439Q233 405 199 386T112 367Q64 367 32 388T0 451Q0 504 33 523T123 546Q132 546 149 546T175 547T197 549T217 554T232 561T243 573T246 591Q246 634 223 653T149 672Q52 672 41 588H21Q32 692 149 692Q263 692 266 603V413Q266 402 271 398T283
393T300 394Z" />
<glyph unicode="&#xab;" glyph-name="guillemotleft" horiz-adv-x="352" d="M169 156V121L66 260V276L169 415V380L86 268L169 156ZM262 156V121L159 260V276L262 415V380L179 268L262 156Z" />
<glyph unicode="&#xac;" glyph-name="logicalnot" horiz-adv-x="600" d="M532 93V340H48V360H552V93H532Z" />
<glyph unicode="&#xad;" glyph-name="uni00AD" horiz-adv-x="333" d="M79 258V278H254V258H79Z" />
<glyph unicode="&#xae;" glyph-name="registered" horiz-adv-x="800" d="M274 135V565H415Q557 565 557 449Q557 397 526 369T445 337L577 135H552L423 335Q413 334 392 334H294V135H274ZM294 354H398Q537 354 537 449Q537 545 413 545H294V354ZM26 202T26 357T135
621T400 731T664 622T774 357T665 93T400 -17T136 92ZM46 504T46 357T149 107T400 3T650 106T754 357T651 607T400 711T150 608Z" />
<glyph unicode="&#xaf;" glyph-name="overscore" horiz-adv-x="130" d="M181 648V628H-51V648H181Z" />
<glyph unicode="&#xb0;" glyph-name="degree" horiz-adv-x="400" d="M323 549Q323 600 288 636T200 672Q151 672 114 635T77 549Q77 496 113 460T200 424Q252 424 287 460T323 549ZM343 549Q343 489 302 447T200 404T99 446T57 549Q57 608 98 650T200 692T301
650T343 549Z" />
<glyph unicode="&#xb1;" glyph-name="plusminus" horiz-adv-x="600" d="M290 308V506H310V308H552V288H310V90H290V288H48V308H290ZM48 0V20H552V0H48Z" />
<glyph unicode="&#xb2;" glyph-name="twosuperior" horiz-adv-x="333" d="M41 297H316V277H18Q18 291 21 304T29 327T45 349T62 367T84 386T106 402T132 419T157 435Q199 463 221 480T264 527T284 588Q284 629 252 650T168 672Q104 672 75 641T46 551H26Q28 621
61 656T168 692Q228 692 266 666T304 588Q304 545 277 509T172 422Q109 382 77 354T41 297Z" />
<glyph unicode="&#xb3;" glyph-name="threesuperior" horiz-adv-x="333" d="M48 559H28Q27 622 68 657T179 692Q238 692 278 669T318 592Q318 550 289 524T216 497V495Q264 492 295 466T326 390Q326 335 283 303T177 270Q99 270 55 308T15 415H35Q30 354 69 322T176
290Q230 290 268 316T306 390Q306 441 270 463T177 486H153V507H179Q230 507 264 527T298 592Q298 672 178 672Q48 672 48 559Z" />
<glyph unicode="&#xb4;" glyph-name="acute" horiz-adv-x="130" d="M142 731H171L25 587H10L142 731Z" />
<glyph unicode="&#xb5;" glyph-name="mu" horiz-adv-x="556" d="M472 514V0H452V127H450Q436 65 387 27T265 -12Q146 -12 105 81H103V-177H83V514H102V176Q102 92 148 50T265 8Q353 8 402 70T452 223V514H472Z" />
<glyph unicode="&#xb6;" glyph-name="paragraph" horiz-adv-x="600" d="M289 714H491V-140H471V694H308V-140H288V328Q191 328 129 383T66 518Q66 612 124 663T289 714Z" />
<glyph unicode="&#xb7;" glyph-name="middot" horiz-adv-x="278" d="M107 326T107 340T116 363T139 372T161 363T171 340T162 317T139 308T117 317Z" />
<glyph unicode="&#xb8;" glyph-name="cedilla" horiz-adv-x="130" d="M-25 -166L-16 -147Q30 -163 57 -163Q135 -163 135 -110Q135 -91 117 -81T80 -70Q48 -70 26 -83L11 -73L68 0H88L47 -56Q49 -56 59 -53T80 -50Q112 -50 133 -64T155 -110Q155 -183 57 -183Q29
-183 -25 -166Z" />
<glyph unicode="&#xb9;" glyph-name="onesuperior" horiz-adv-x="333" d="M181 277V662H179Q144 613 62 590V609Q100 621 125 637T179 685H201V277H181Z" />
<glyph unicode="&#xba;" glyph-name="ordmasculine" horiz-adv-x="300" d="M0 531Q0 598 40 645T151 692T261 645T301 531Q301 463 261 415T150 367Q80 367 40 415T0 531ZM20 531Q20 473 56 430T151 387T245 430T281 531Q281 587 246 629T151 672T56 630T20 531Z" />
<glyph unicode="&#xbb;" glyph-name="guillemotright" horiz-adv-x="352" d="M183 380V415L286 276V260L183 121V156L266 268L183 380ZM90 380V415L193 276V260L90 121V156L173 268L90 380Z" />
<glyph unicode="&#xbc;" glyph-name="onequarter" horiz-adv-x="834" d="M635 122V379V381L633 379L435 122H635ZM635 102H414V127L630 408H655V122H731V102H655V0H635V102ZM144 -34L620 714H643L167 -34H144ZM221 277V662H219Q184 613 102 590V609Q140 621 165
637T219 685H241V277H221Z" />
<glyph unicode="&#xbd;" glyph-name="onehalf" horiz-adv-x="834" d="M97 -34L573 714H596L120 -34H97ZM184 277V662H182Q147 613 65 590V609Q103 621 128 637T182 685H204V277H184ZM495 20H770V0H472Q472 14 475 27T483 50T499 72T516 90T538 109T560 125T586
142T611 158Q653 186 675 203T718 250T738 311Q738 352 706 373T622 395Q558 395 529 364T500 274H480Q482 344 515 379T622 415Q682 415 720 389T758 311Q758 268 731 232T626 145Q563 105 531 77T495 20Z" />
<glyph unicode="&#xbe;" glyph-name="threequarters" horiz-adv-x="834" d="M687 122V379V381L685 379L487 122H687ZM687 102H466V127L682 408H707V122H783V102H707V0H687V102ZM202 -34L678 714H701L225 -34H202ZM92 559H72Q71 622 112 657T223 692Q282 692 322
669T362 592Q362 550 333 524T260 497V495Q308 492 339 466T370 390Q370 335 327 303T221 270Q143 270 99 308T59 415H79Q74 354 113 322T220 290Q274 290 312 316T350 390Q350 441 314 464T221 487Q205 487 197 486V507H223Q274 507 308 527T342 592Q342 672 222
672Q92 672 92 559Z" />
<glyph unicode="&#xbf;" glyph-name="questiondown" horiz-adv-x="500" d="M445 49H465Q469 -57 411 -123T248 -189Q163 -189 107 -145T51 -23Q51 12 60 41T89 95T117 128T148 156Q206 212 226 251T247 360H267Q267 293 246 248T169 148Q168 147 153 135T127 110T102
78T79 32T71 -23Q71 -92 120 -130T248 -169Q345 -169 397 -110T445 49ZM248 542H268V444H248V542Z" />
<glyph unicode="&#xc0;" glyph-name="Agrave" horiz-adv-x="575" d="M114 255H462L292 694H290L114 255ZM470 235H106L11 0H-12L278 714H304L586 0H564L470 235ZM324 765L185 909H214L339 765H324Z" />
<glyph unicode="&#xc1;" glyph-name="Aacute" horiz-adv-x="575" d="M114 255H462L292 694H290L114 255ZM470 235H106L11 0H-12L278 714H304L586 0H564L470 235ZM365 909H394L248 765H233L365 909Z" />
<glyph unicode="&#xc2;" glyph-name="Acircumflex" horiz-adv-x="575" d="M114 255H462L292 694H290L114 255ZM470 235H106L11 0H-12L278 714H304L586 0H564L470 235ZM409 770H389L286 893L187 770H167L280 909H295L409 770Z" />
<glyph unicode="&#xc3;" glyph-name="Atilde" horiz-adv-x="575" d="M114 255H462L292 694H290L114 255ZM470 235H106L11 0H-12L278 714H304L586 0H564L470 235ZM176 780H156Q156 808 177 833T224 859Q248 859 290 830T351 801Q373 801 386 817T400 856H420Q420
825 402 803T351 781Q325 781 285 810T224 839Q204 839 190 820T176 780Z" />
<glyph unicode="&#xc4;" glyph-name="Adieresis" horiz-adv-x="575" d="M114 255H462L292 694H290L114 255ZM470 235H106L11 0H-12L278 714H304L586 0H564L470 235ZM220 768H200V849H220V768ZM376 768H356V849H376V768Z" />
<glyph unicode="&#xc5;" glyph-name="Aring" horiz-adv-x="575" d="M114 255H462L292 694H290L114 255ZM470 235H106L11 0H-12L278 714H304L586 0H564L470 235ZM376 824Q376 788 350 762T288 736Q253 736 227 762T200 824Q200 859 226 885T288 912T349 886T376
824ZM356 796T356 824T336 872T288 892T240 872T220 824T240 776T288 756T336 776Z" />
<glyph unicode="&#xc6;" glyph-name="AE" horiz-adv-x="852" d="M423 274H155L10 0H-12L366 714H835V694H443V382H803V362H443V20H835V0H423V274ZM423 696H376L165 294H423V696Z" />
<glyph unicode="&#xc7;" glyph-name="Ccedilla" horiz-adv-x="685" d="M646 500H626Q619 583 546 647T361 711Q293 711 238 688T148 627T89 542T55 446T45 351Q45 207 127 105T348 3Q472 3 548 79T642 280H662Q643 146 563 65T353 -17L324 -56Q326 -56 336 -53T357
-50Q389 -50 410 -64T432 -110Q432 -183 334 -183Q306 -183 252 -166L261 -147Q307 -163 334 -163Q412 -163 412 -110Q412 -91 394 -81T357 -70Q325 -70 303 -83L288 -73L332 -16Q196 -10 111 92T25 351Q25 405 36 457T74 559T137 647T233 708T361 731Q428 731
484 708T573 648T626 574T646 500Z" />
<glyph unicode="&#xc8;" glyph-name="Egrave" horiz-adv-x="537" d="M74 362V20H532V0H54V714H528V694H74V382H501V362H74ZM305 765L166 909H195L320 765H305Z" />
<glyph unicode="&#xc9;" glyph-name="Eacute" horiz-adv-x="537" d="M74 362V20H532V0H54V714H528V694H74V382H501V362H74ZM346 909H375L229 765H214L346 909Z" />
<glyph unicode="&#xca;" glyph-name="Ecircumflex" horiz-adv-x="537" d="M74 362V20H532V0H54V714H528V694H74V382H501V362H74ZM390 770H370L267 893L168 770H148L261 909H276L390 770Z" />
<glyph unicode="&#xcb;" glyph-name="Edieresis" horiz-adv-x="537" d="M74 362V20H532V0H54V714H528V694H74V382H501V362H74ZM201 768H181V849H201V768ZM357 768H337V849H357V768Z" />
<glyph unicode="&#xcc;" glyph-name="Igrave" horiz-adv-x="128" d="M54 0V714H74V0H54ZM100 765L-39 909H-10L115 765H100Z" />
<glyph unicode="&#xcd;" glyph-name="Iacute" horiz-adv-x="128" d="M54 0V714H74V0H54ZM141 909H170L24 765H9L141 909Z" />
<glyph unicode="&#xce;" glyph-name="Icircumflex" horiz-adv-x="128" d="M54 0V714H74V0H54ZM185 770H165L62 893L-37 770H-57L56 909H71L185 770Z" />
<glyph unicode="&#xcf;" glyph-name="Idieresis" horiz-adv-x="128" d="M54 0V714H74V0H54ZM-4 768H-24V849H-4V768ZM152 768H132V849H152V768Z" />
<glyph unicode="&#xd0;" glyph-name="Eth" horiz-adv-x="648" d="M54 362H-10V382H54V714H304Q362 714 412 697T508 642T581 531T608 357Q608 264 581 194T505 82T399 21T273 0H54V362ZM371 362H74V20H278Q413 20 500 106T588 357Q588 434 572 494T528 591T463
652T385 685T299 694H74V382H371V362Z" />
<glyph unicode="&#xd1;" glyph-name="Ntilde" horiz-adv-x="648" d="M54 0V714H84L572 25H574V714H594V0H564L76 689H74V0H54ZM212 780H192Q192 808 213 833T260 859Q284 859 326 830T387 801Q409 801 422 817T436 856H456Q456 825 438 803T387 781Q361 781 321
810T260 839Q240 839 226 820T212 780Z" />
<glyph unicode="&#xd2;" glyph-name="Ograve" horiz-adv-x="721" d="M52 357Q54 200 137 102T361 3T585 101T670 357Q668 514 585 612T361 711T137 613T52 357ZM32 197T32 357T119 624T361 731T602 624T690 357T603 90T361 -17T120 90ZM397 765L258 909H287L412 765H397Z" />
<glyph unicode="&#xd3;" glyph-name="Oacute" horiz-adv-x="721" d="M52 357Q54 200 137 102T361 3T585 101T670 357Q668 514 585 612T361 711T137 613T52 357ZM32 197T32 357T119 624T361 731T602 624T690 357T603 90T361 -17T120 90ZM438 909H467L321 765H306L438 909Z" />
<glyph unicode="&#xd4;" glyph-name="Ocircumflex" horiz-adv-x="721" d="M52 357Q54 200 137 102T361 3T585 101T670 357Q668 514 585 612T361 711T137 613T52 357ZM32 197T32 357T119 624T361 731T602 624T690 357T603 90T361 -17T120 90ZM482 770H462L359 893L260
770H240L353 909H368L482 770Z" />
<glyph unicode="&#xd5;" glyph-name="Otilde" horiz-adv-x="721" d="M52 357Q54 200 137 102T361 3T585 101T670 357Q668 514 585 612T361 711T137 613T52 357ZM32 197T32 357T119 624T361 731T602 624T690 357T603 90T361 -17T120 90ZM249 780H229Q229 808 250
833T297 859Q321 859 363 830T424 801Q446 801 459 817T473 856H493Q493 825 475 803T424 781Q398 781 358 810T297 839Q277 839 263 820T249 780Z" />
<glyph unicode="&#xd6;" glyph-name="Odieresis" horiz-adv-x="721" d="M52 357Q54 200 137 102T361 3T585 101T670 357Q668 514 585 612T361 711T137 613T52 357ZM32 197T32 357T119 624T361 731T602 624T690 357T603 90T361 -17T120 90ZM293 768H273V849H293V768ZM449
768H429V849H449V768Z" />
<glyph unicode="&#xd7;" glyph-name="multiply" horiz-adv-x="600" d="M286 253L96 443L110 456L299 265L490 456L504 443L313 253L504 63L490 49L299 240L110 49L96 63L286 253Z" />
<glyph unicode="&#xd8;" glyph-name="Oslash" horiz-adv-x="721" d="M127 114L581 617Q497 711 361 711Q220 711 137 613T52 357Q54 207 127 114ZM594 601L140 99Q222 3 361 3Q502 3 585 101T670 357Q668 508 594 601ZM40 17L113 98Q32 200 32 357Q32 517 119
624T361 731Q506 731 595 632L654 697L669 685L608 617Q690 515 690 357Q690 197 603 90T361 -17Q214 -17 126 84L55 5L40 17Z" />
<glyph unicode="&#xd9;" glyph-name="Ugrave" horiz-adv-x="632" d="M558 266V714H578V266Q578 126 511 55T316 -17T122 54T54 266V714H74V266Q74 3 316 3T558 266ZM352 765L213 909H242L367 765H352Z" />
<glyph unicode="&#xda;" glyph-name="Uacute" horiz-adv-x="632" d="M558 266V714H578V266Q578 126 511 55T316 -17T122 54T54 266V714H74V266Q74 3 316 3T558 266ZM393 909H422L276 765H261L393 909Z" />
<glyph unicode="&#xdb;" glyph-name="Ucircumflex" horiz-adv-x="632" d="M558 266V714H578V266Q578 126 511 55T316 -17T122 54T54 266V714H74V266Q74 3 316 3T558 266ZM437 770H417L314 893L215 770H195L308 909H323L437 770Z" />
<glyph unicode="&#xdc;" glyph-name="Udieresis" horiz-adv-x="632" d="M558 266V714H578V266Q578 126 511 55T316 -17T122 54T54 266V714H74V266Q74 3 316 3T558 266ZM248 768H228V849H248V768ZM404 768H384V849H404V768Z" />
<glyph unicode="&#xdd;" glyph-name="Yacute" horiz-adv-x="538" d="M269 322L544 714H568L279 301V0H259V301L-30 714H-5L269 322ZM346 931H375L229 787H214L346 931Z" />
<glyph unicode="&#xde;" glyph-name="Thorn" horiz-adv-x="574" d="M74 570V221H343Q430 221 485 267T540 395Q540 480 490 525T343 570H74ZM74 590H343Q446 590 503 541T560 395Q560 303 498 252T333 201H74V0H54V714H74V590Z" />
<glyph unicode="&#xdf;" glyph-name="germandbls" horiz-adv-x="481" d="M202 387V407Q287 405 341 441T395 561Q395 627 348 666T231 706Q207 706 185 701T135 682T92 635T75 553V0H55V556Q55 644 106 685T231 726Q307 726 361 681T415 561Q415 497 383 454T288
400V398Q371 391 411 342T452 210Q452 106 394 51T202 0V20Q432 8 432 210Q432 264 416 300T367 354T295 380T202 387Z" />
<glyph unicode="&#xe0;" glyph-name="agrave" horiz-adv-x="481" d="M400 207V302H398Q390 291 376 284T339 273T298 267T248 264T199 261Q164 258 140 253T91 234T55 193T42 127Q42 77 78 43T192 8Q288 8 344 67T400 207ZM74 355H54Q58 431 108 478T250 526Q416
526 420 379V52Q420 34 430 26T455 18T485 20V0Q465 -1 446 -1T414 12T400 50V117H398Q382 64 326 26T194 -12Q116 -12 69 24T22 127Q22 172 36 203T79 249T134 271T199 281Q324 288 350 296Q395 308 399 351Q400 357 400 364Q400 392 396 413T377 457T331 493T250
506Q170 506 125 467T74 355ZM277 565L138 709H167L292 565H277Z" />
<glyph unicode="&#xe1;" glyph-name="aacute" horiz-adv-x="481" d="M400 207V302H398Q390 291 376 284T339 273T298 267T248 264T199 261Q164 258 140 253T91 234T55 193T42 127Q42 77 78 43T192 8Q288 8 344 67T400 207ZM74 355H54Q58 431 108 478T250 526Q416
526 420 379V52Q420 34 430 26T455 18T485 20V0Q465 -1 446 -1T414 12T400 50V117H398Q382 64 326 26T194 -12Q116 -12 69 24T22 127Q22 172 36 203T79 249T134 271T199 281Q324 288 350 296Q395 308 399 351Q400 357 400 364Q400 392 396 413T377 457T331 493T250
506Q170 506 125 467T74 355ZM318 709H347L201 565H186L318 709Z" />
<glyph unicode="&#xe2;" glyph-name="acircumflex" horiz-adv-x="481" d="M400 207V302H398Q390 291 376 284T339 273T298 267T248 264T199 261Q164 258 140 253T91 234T55 193T42 127Q42 77 78 43T192 8Q288 8 344 67T400 207ZM74 355H54Q58 431 108 478T250
526Q416 526 420 379V52Q420 34 430 26T455 18T485 20V0Q465 -1 446 -1T414 12T400 50V117H398Q382 64 326 26T194 -12Q116 -12 69 24T22 127Q22 172 36 203T79 249T134 271T199 281Q324 288 350 296Q395 308 399 351Q400 357 400 364Q400 392 396 413T377 457T331
493T250 506Q170 506 125 467T74 355ZM362 570H342L239 693L140 570H120L233 709H248L362 570Z" />
<glyph unicode="&#xe3;" glyph-name="atilde" horiz-adv-x="481" d="M400 207V302H398Q390 291 376 284T339 273T298 267T248 264T199 261Q164 258 140 253T91 234T55 193T42 127Q42 77 78 43T192 8Q288 8 344 67T400 207ZM74 355H54Q58 431 108 478T250 526Q416
526 420 379V52Q420 34 430 26T455 18T485 20V0Q465 -1 446 -1T414 12T400 50V117H398Q382 64 326 26T194 -12Q116 -12 69 24T22 127Q22 172 36 203T79 249T134 271T199 281Q324 288 350 296Q395 308 399 351Q400 357 400 364Q400 392 396 413T377 457T331 493T250
506Q170 506 125 467T74 355ZM129 580H109Q109 608 130 633T177 659Q201 659 243 630T304 601Q326 601 339 617T353 656H373Q373 625 355 603T304 581Q278 581 238 610T177 639Q157 639 143 620T129 580Z" />
<glyph unicode="&#xe4;" glyph-name="adieresis" horiz-adv-x="481" d="M400 207V302H398Q390 291 376 284T339 273T298 267T248 264T199 261Q164 258 140 253T91 234T55 193T42 127Q42 77 78 43T192 8Q288 8 344 67T400 207ZM74 355H54Q58 431 108 478T250 526Q416
526 420 379V52Q420 34 430 26T455 18T485 20V0Q465 -1 446 -1T414 12T400 50V117H398Q382 64 326 26T194 -12Q116 -12 69 24T22 127Q22 172 36 203T79 249T134 271T199 281Q324 288 350 296Q395 308 399 351Q400 357 400 364Q400 392 396 413T377 457T331 493T250
506Q170 506 125 467T74 355ZM173 568H153V649H173V568ZM329 568H309V649H329V568Z" />
<glyph unicode="&#xe5;" glyph-name="aring" horiz-adv-x="481" d="M400 207V302H398Q390 291 376 284T339 273T298 267T248 264T199 261Q164 258 140 253T91 234T55 193T42 127Q42 77 78 43T192 8Q288 8 344 67T400 207ZM74 355H54Q58 431 108 478T250 526Q416
526 420 379V52Q420 34 430 26T455 18T485 20V0Q465 -1 446 -1T414 12T400 50V117H398Q382 64 326 26T194 -12Q116 -12 69 24T22 127Q22 172 36 203T79 249T134 271T199 281Q324 288 350 296Q395 308 399 351Q400 357 400 364Q400 392 396 413T377 457T331 493T250
506Q170 506 125 467T74 355ZM329 674Q329 638 303 612T241 586Q206 586 180 612T153 674Q153 709 179 735T241 762T302 736T329 674ZM309 646T309 674T289 722T241 742T193 722T173 674T193 626T241 606T289 626Z" />
<glyph unicode="&#xe6;" glyph-name="ae" horiz-adv-x="889" d="M430 273H837Q837 375 786 440T637 506Q544 506 491 444T430 273ZM410 207V302H408Q400 291 386 284T349 273T308 267T258 264T209 261Q174 258 150 253T101 234T65 193T52 127Q52 77 88 43T202
8Q298 8 354 67T410 207ZM84 355H64Q68 431 118 478T260 526Q426 526 430 376H432Q453 444 506 485T637 526Q748 526 805 447T857 253H430Q434 142 483 75T635 8Q714 8 769 52T834 178H854Q846 93 786 41T635 -12Q553 -13 498 31T423 155H421Q406 78 346 33T204
-12Q126 -12 79 24T32 127Q32 172 46 203T89 249T144 271T209 281Q334 288 360 296Q405 308 409 351Q410 357 410 364Q410 392 406 413T387 457T341 493T260 506Q180 506 135 467T84 355Z" />
<glyph unicode="&#xe7;" glyph-name="ccedilla" horiz-adv-x="500" d="M449 175H469Q461 91 406 41T265 -11L232 -56Q234 -56 244 -53T265 -50Q297 -50 318 -64T340 -110Q340 -183 242 -183Q214 -183 160 -166L169 -147Q215 -163 242 -163Q320 -163 320 -110Q320
-91 302 -81T265 -70Q233 -70 211 -83L196 -73L245 -10Q146 -6 89 67T31 246Q31 366 92 446T271 526Q346 526 401 482T465 358H445Q433 430 386 468T271 506Q212 506 168 483T100 421T63 338T51 246Q51 146 106 77T259 8Q336 8 389 53T449 175Z" />
<glyph unicode="&#xe8;" glyph-name="egrave" horiz-adv-x="500" d="M45 273H455Q456 372 402 439T252 506Q167 506 109 443T45 273ZM475 253H45Q47 141 95 75T248 8Q329 8 382 52T449 178H469Q459 90 399 39T250 -12Q136 -13 81 61T25 257Q25 380 91 453T250
526Q327 526 380 487T455 387T475 253ZM286 565L147 709H176L301 565H286Z" />
<glyph unicode="&#xe9;" glyph-name="eacute" horiz-adv-x="500" d="M45 273H455Q456 372 402 439T252 506Q167 506 109 443T45 273ZM475 253H45Q47 141 95 75T248 8Q329 8 382 52T449 178H469Q459 90 399 39T250 -12Q136 -13 81 61T25 257Q25 380 91 453T250
526Q327 526 380 487T455 387T475 253ZM327 709H356L210 565H195L327 709Z" />
<glyph unicode="&#xea;" glyph-name="ecircumflex" horiz-adv-x="500" d="M45 273H455Q456 372 402 439T252 506Q167 506 109 443T45 273ZM475 253H45Q47 141 95 75T248 8Q329 8 382 52T449 178H469Q459 90 399 39T250 -12Q136 -13 81 61T25 257Q25 380 91 453T250
526Q327 526 380 487T455 387T475 253ZM371 570H351L248 693L149 570H129L242 709H257L371 570Z" />
<glyph unicode="&#xeb;" glyph-name="edieresis" horiz-adv-x="500" d="M45 273H455Q456 372 402 439T252 506Q167 506 109 443T45 273ZM475 253H45Q47 141 95 75T248 8Q329 8 382 52T449 178H469Q459 90 399 39T250 -12Q136 -13 81 61T25 257Q25 380 91 453T250
526Q327 526 380 487T455 387T475 253ZM182 568H162V649H182V568ZM338 568H318V649H338V568Z" />
<glyph unicode="&#xec;" glyph-name="igrave" horiz-adv-x="130" d="M75 0H55V514H75V0ZM101 565L-38 709H-9L116 565H101Z" />
<glyph unicode="&#xed;" glyph-name="iacute" horiz-adv-x="130" d="M75 0H55V514H75V0ZM142 709H171L25 565H10L142 709Z" />
<glyph unicode="&#xee;" glyph-name="icircumflex" horiz-adv-x="130" d="M75 0H55V514H75V0ZM186 570H166L63 693L-36 570H-56L57 709H72L186 570Z" />
<glyph unicode="&#xef;" glyph-name="idieresis" horiz-adv-x="130" d="M75 0H55V514H75V0ZM-3 568H-23V649H-3V568ZM153 568H133V649H153V568Z" />
<glyph unicode="&#xf0;" glyph-name="eth" horiz-adv-x="519" d="M128 581L249 648Q205 683 156 708L172 722Q224 695 268 658L391 726L406 710L286 643Q393 544 442 450T491 248T429 65T259 -11T90 64T28 248Q28 355 90 431T260 507T422 435H426Q399 490 353
544T265 634L143 566L128 581ZM48 248Q48 148 104 79T260 9Q358 9 414 79T471 248Q471 346 415 416T260 487Q161 487 105 417T48 248Z" />
<glyph unicode="&#xf1;" glyph-name="ntilde" horiz-adv-x="500" d="M55 0V514H75V387H77Q92 449 140 487T262 526Q344 526 394 477T445 341V0H425V338Q425 422 379 464T262 506Q174 506 125 444T75 291V0H55ZM138 580H118Q118 608 139 633T186 659Q210 659 252
630T313 601Q335 601 348 617T362 656H382Q382 625 364 603T313 581Q287 581 247 610T186 639Q166 639 152 620T138 580Z" />
<glyph unicode="&#xf2;" glyph-name="ograve" horiz-adv-x="519" d="M28 145T28 257T90 447T260 526Q367 526 429 447T491 257Q491 145 429 67T259 -12T90 66ZM48 257Q48 153 104 81T260 8Q358 8 414 81T471 257Q471 359 415 432T260 506Q161 506 105 433T48 257ZM296
565L157 709H186L311 565H296Z" />
<glyph unicode="&#xf3;" glyph-name="oacute" horiz-adv-x="519" d="M28 145T28 257T90 447T260 526Q367 526 429 447T491 257Q491 145 429 67T259 -12T90 66ZM48 257Q48 153 104 81T260 8Q358 8 414 81T471 257Q471 359 415 432T260 506Q161 506 105 433T48 257ZM337
709H366L220 565H205L337 709Z" />
<glyph unicode="&#xf4;" glyph-name="ocircumflex" horiz-adv-x="519" d="M28 145T28 257T90 447T260 526Q367 526 429 447T491 257Q491 145 429 67T259 -12T90 66ZM48 257Q48 153 104 81T260 8Q358 8 414 81T471 257Q471 359 415 432T260 506Q161 506 105 433T48
257ZM381 570H361L258 693L159 570H139L252 709H267L381 570Z" />
<glyph unicode="&#xf5;" glyph-name="otilde" horiz-adv-x="519" d="M28 145T28 257T90 447T260 526Q367 526 429 447T491 257Q491 145 429 67T259 -12T90 66ZM48 257Q48 153 104 81T260 8Q358 8 414 81T471 257Q471 359 415 432T260 506Q161 506 105 433T48 257ZM148
580H128Q128 608 149 633T196 659Q220 659 262 630T323 601Q345 601 358 617T372 656H392Q392 625 374 603T323 581Q297 581 257 610T196 639Q176 639 162 620T148 580Z" />
<glyph unicode="&#xf6;" glyph-name="odieresis" horiz-adv-x="519" d="M28 145T28 257T90 447T260 526Q367 526 429 447T491 257Q491 145 429 67T259 -12T90 66ZM48 257Q48 153 104 81T260 8Q358 8 414 81T471 257Q471 359 415 432T260 506Q161 506 105 433T48
257ZM192 568H172V649H192V568ZM348 568H328V649H348V568Z" />
<glyph unicode="&#xf7;" glyph-name="divide" horiz-adv-x="600" d="M552 243H48V263H552V243ZM341 424T300 424T259 465Q259 483 271 494T300 506T329 494T341 465Q341 424 300 424ZM341 0T300 0T259 41Q259 59 271 70T300 82T329 70T341 41Q341 0 300 0Z" />
<glyph unicode="&#xf8;" glyph-name="oslash" horiz-adv-x="519" d="M92 99L412 434Q356 506 260 506Q161 506 105 433T48 257Q48 166 92 99ZM424 418L104 83Q159 8 260 8Q358 8 414 81T471 257Q471 350 424 418ZM427 449L472 496L486 482L439 433Q491 361 491
257Q491 145 429 67T259 -12Q153 -12 89 67L32 8L18 22L78 84Q28 155 28 257Q28 369 90 447T260 526Q364 526 427 449Z" />
<glyph unicode="&#xf9;" glyph-name="ugrave" horiz-adv-x="500" d="M445 514V0H425V127H423Q408 65 360 27T238 -12Q156 -12 106 37T55 173V514H75V176Q75 92 121 50T238 8Q326 8 375 70T425 223V514H445ZM286 565L147 709H176L301 565H286Z" />
<glyph unicode="&#xfa;" glyph-name="uacute" horiz-adv-x="500" d="M445 514V0H425V127H423Q408 65 360 27T238 -12Q156 -12 106 37T55 173V514H75V176Q75 92 121 50T238 8Q326 8 375 70T425 223V514H445ZM327 709H356L210 565H195L327 709Z" />
<glyph unicode="&#xfb;" glyph-name="ucircumflex" horiz-adv-x="500" d="M445 514V0H425V127H423Q408 65 360 27T238 -12Q156 -12 106 37T55 173V514H75V176Q75 92 121 50T238 8Q326 8 375 70T425 223V514H445ZM371 570H351L248 693L149 570H129L242 709H257L371 570Z" />
<glyph unicode="&#xfc;" glyph-name="udieresis" horiz-adv-x="500" d="M445 514V0H425V127H423Q408 65 360 27T238 -12Q156 -12 106 37T55 173V514H75V176Q75 92 121 50T238 8Q326 8 375 70T425 223V514H445ZM182 568H162V649H182V568ZM338 568H318V649H338V568Z" />
<glyph unicode="&#xfd;" glyph-name="yacute" horiz-adv-x="407" d="M214 27L398 514H419L182 -105Q172 -130 159 -145T126 -167T91 -175T46 -177V-157Q101 -158 125 -147T166 -91L203 5L-12 514H10L214 27ZM281 731H310L164 587H149L281 731Z" />
<glyph unicode="&#xfe;" glyph-name="thorn" horiz-adv-x="537" d="M482 258Q482 365 433 435T283 506T129 435T75 258Q75 141 132 75T283 8Q355 8 401 47T465 139T482 258ZM75 144V-177H55V714H75V370H77Q98 441 150 483T283 526Q388 526 445 452T502 258Q502
183 480 124T407 27T283 -12Q205 -12 150 30T77 144H75Z" />
<glyph unicode="&#xff;" glyph-name="ydieresis" horiz-adv-x="407" d="M214 27L398 514H419L182 -105Q172 -130 159 -145T126 -167T91 -175T46 -177V-157Q101 -158 125 -147T166 -91L203 5L-12 514H10L214 27ZM136 590H116V671H136V590ZM292 590H272V671H292V590Z" />
<glyph unicode="&#x131;" glyph-name="dotlessi" horiz-adv-x="130" d="M75 0H55V514H75V0Z" />
<glyph unicode="&#x141;" glyph-name="Lslash" horiz-adv-x="481" d="M491 0H54V269L-20 217V241L54 293V714H74V307L322 481V457L74 283V20H491V0Z" />
<glyph unicode="&#x142;" glyph-name="lslash" horiz-adv-x="130" d="M55 714H75V417L148 480V455L75 392V0H55V375L-18 312V337L55 400V714Z" />
<glyph unicode="&#x152;" glyph-name="OE" horiz-adv-x="1019" d="M578 382H944V362H578V20H992V0H558V65Q479 -17 362 -17Q207 -17 120 89T32 353Q32 456 68 540T180 677T362 731Q486 731 558 649V714H992V694H578V382ZM558 94V623Q511 671 468 691T362 711Q221
711 138 613T52 353Q54 198 137 101T362 3Q479 3 558 94Z" />
<glyph unicode="&#x153;" glyph-name="oe" horiz-adv-x="890" d="M454 273H836Q834 376 788 441T647 506Q463 506 454 273ZM434 257Q434 307 424 350T393 429T333 485T243 506Q146 506 99 435T52 257Q52 153 99 81T243 8Q296 8 334 28T393 84T424 162T434 257ZM856
253H454Q452 8 646 8Q799 8 829 173H849Q835 87 783 38T646 -12T509 32T445 157H443Q426 77 376 33T243 -12Q171 -12 122 28T53 126T32 257Q32 309 43 355T79 440T145 503T243 526Q325 526 378 478T442 350H444Q458 430 507 477T646 526Q750 527 803 453T856 268V253Z"
/>
<glyph unicode="&#x160;" glyph-name="Scaron" horiz-adv-x="611" d="M553 514H533Q526 711 301 711Q260 711 223 703T152 678T98 627T77 547Q77 528 81 512T90 483T107 459T128 439T154 423T183 411T216 400T250 391T287 383T323 374Q333 372 351 367Q385 358
401 354T446 340T487 323T519 300T545 268T560 228T567 175Q567 81 492 32T315 -17Q186 -17 110 45T36 237H56Q56 3 315 3Q409 3 478 46T547 176Q547 202 540 224T524 261T497 290T464 311T424 327T383 339T339 349T297 359Q185 385 148 403Q57 447 57 547Q57 598
78 635T136 693T214 722T301 731Q414 731 481 680T553 514ZM187 931H207L310 808L409 931H429L316 792H301L187 931Z" />
<glyph unicode="&#x161;" glyph-name="scaron" horiz-adv-x="463" d="M410 362H390Q390 436 346 471T224 506Q174 506 140 493T93 458T75 422T70 397Q70 330 127 307Q144 300 259 269Q287 262 299 259T336 247T372 229T398 206T418 174T424 131Q424 82 396 49T327
2T238 -12Q30 -12 30 176H50Q50 92 98 50T238 8Q278 8 314 19T377 59T404 129Q404 142 401 154T395 175T382 192T368 206T348 218T328 228T304 236T280 243T253 250T227 256Q146 276 112 291Q50 318 50 397Q50 447 93 486T224 526T361 486T410 362ZM111 731H131L234
608L333 731H353L240 592H225L111 731Z" />
<glyph unicode="&#x178;" glyph-name="Ydieresis" horiz-adv-x="538" d="M269 322L544 714H568L279 301V0H259V301L-30 714H-5L269 322ZM201 768H181V849H201V768ZM357 768H337V849H357V768Z" />
<glyph unicode="&#x17d;" glyph-name="Zcaron" horiz-adv-x="500" d="M1 20H508V0H-19V27L480 694H9V714H500V687L1 20ZM129 931H149L252 808L351 931H371L258 792H243L129 931Z" />
<glyph unicode="&#x17e;" glyph-name="zcaron" horiz-adv-x="407" d="M26 20H402V0H5V25L365 494H32V514H386V489L26 20ZM83 731H103L206 608L305 731H325L212 592H197L83 731Z" />
<glyph unicode="&#x192;" glyph-name="florin" horiz-adv-x="556" d="M281 411L189 -55Q179 -108 148 -142T63 -177Q32 -177 13 -171L18 -151Q39 -157 60 -157Q147 -157 168 -51L259 411H140L144 431H263L302 626Q323 731 434 731Q465 731 489 724L485 705Q453
711 432 711Q385 711 359 690T322 615L285 431H412L408 411H281Z" />
<glyph unicode="&#x2c6;" glyph-name="circumflex" horiz-adv-x="130" d="M186 592H166L63 715L-36 592H-56L57 731H72L186 592Z" />
<glyph unicode="&#x2c7;" glyph-name="caron" horiz-adv-x="130" d="M-56 731H-36L67 608L166 731H186L73 592H58L-56 731Z" />
<glyph unicode="&#x2c9;" glyph-name="uni02C9" horiz-adv-x="130" d="M181 648V628H-51V648H181Z" />
<glyph unicode="&#x2d8;" glyph-name="breve" horiz-adv-x="130" d="M-58 731H-38Q-33 692 -6 668T62 644Q106 644 135 666T168 731H188Q182 681 148 653T62 624Q14 624 -19 653T-58 731Z" />
<glyph unicode="&#x2d9;" glyph-name="dotaccent" horiz-adv-x="130" d="M55 671H75V590H55V671Z" />
<glyph unicode="&#x2da;" glyph-name="ring" horiz-adv-x="130" d="M153 674Q153 638 127 612T65 586Q30 586 4 612T-23 674Q-23 709 3 735T65 762T126 736T153 674ZM133 646T133 674T113 722T65 742T17 722T-3 674T17 626T65 606T113 626Z" />
<glyph unicode="&#x2db;" glyph-name="ogonek" horiz-adv-x="130" d="M81 0H110Q53 -44 29 -72T4 -126Q4 -143 18 -156T59 -169Q109 -169 136 -138L153 -150Q118 -189 59 -189Q24 -189 4 -171T-16 -127Q-16 -73 81 0Z" />
<glyph unicode="&#x2dc;" glyph-name="tilde" horiz-adv-x="130" d="M-47 602H-67Q-67 630 -46 655T1 681Q25 681 67 652T128 623Q150 623 163 639T177 678H197Q197 647 179 625T128 603Q102 603 62 632T1 661Q-19 661 -33 642T-47 602Z" />
<glyph unicode="&#x2dd;" glyph-name="hungarumlaut" horiz-adv-x="130" d="M87 731H116L-30 587H-45L87 731ZM237 731H266L120 587H105L237 731Z" />
<glyph unicode="&#x3a9;" glyph-name="uni03A9" horiz-adv-x="734" d="M220 27V29Q155 83 114 166T73 354Q73 505 159 597T370 689Q496 689 578 594T661 357Q661 249 618 163T512 29V27H675V0H454V20Q527 66 578 154T630 354Q630 425 602 494T513 613T369 663Q251
663 178 573T104 354Q104 248 156 156T279 20V0H59V27H220Z" />
<glyph unicode="&#x3bc;" glyph-name="uni03BC" horiz-adv-x="556" d="M472 514V0H452V127H450Q436 65 387 27T265 -12Q146 -12 105 81H103V-177H83V514H102V176Q102 92 148 50T265 8Q353 8 402 70T452 223V514H472Z" />
<glyph unicode="&#x3c0;" glyph-name="pi" horiz-adv-x="546" d="M517 473H427V144Q427 44 443 0H412Q396 27 396 136V473H177Q171 358 147 209T96 0H65Q94 69 117 211T146 473Q57 473 22 459L13 479Q57 500 139 500H522L517 473Z" />
<glyph unicode="&#x2013;" glyph-name="endash" horiz-adv-x="500" d="M0 258V278H500V258H0Z" />
<glyph unicode="&#x2014;" glyph-name="emdash" horiz-adv-x="1000" d="M870 278V258H130V278H870Z" />
<glyph unicode="&#x2018;" glyph-name="quoteleft" horiz-adv-x="167" d="M93 489H73V607Q73 659 82 679T118 714V694Q93 678 93 607V489Z" />
<glyph unicode="&#x2019;" glyph-name="quoteright" horiz-adv-x="167" d="M74 714H94V596Q94 544 85 524T49 489V509Q74 525 74 596V714Z" />
<glyph unicode="&#x201a;" glyph-name="quotesinglbase" horiz-adv-x="167" d="M73 98H93V0Q93 -89 48 -119V-99Q73 -75 73 0V98Z" />
<glyph unicode="&#x201c;" glyph-name="quotedblleft" horiz-adv-x="278" d="M103 489H83V607Q83 659 92 679T128 714V694Q103 678 103 607V489ZM203 489H183V607Q183 659 192 679T228 714V694Q203 678 203 607V489Z" />
<glyph unicode="&#x201d;" glyph-name="quotedblright" horiz-adv-x="278" d="M175 714H195V596Q195 544 186 524T150 489V509Q175 525 175 596V714ZM75 714H95V596Q95 544 86 524T50 489V509Q75 525 75 596V714Z" />
<glyph unicode="&#x201e;" glyph-name="quotedblbase" horiz-adv-x="278" d="M175 98H195V0Q195 -89 150 -119V-99Q175 -75 175 0V98ZM75 98H95V0Q95 -89 50 -119V-99Q75 -75 75 0V98Z" />
<glyph unicode="&#x2020;" glyph-name="dagger" horiz-adv-x="556" d="M268 714H288V471H496V451H288V-140H268V451H60V471H268V714Z" />
<glyph unicode="&#x2021;" glyph-name="daggerdbl" horiz-adv-x="556" d="M268 57H60V77H268V497H60V517H268V714H288V517H496V497H288V77H496V57H288V-140H268V57Z" />
<glyph unicode="&#x2022;" glyph-name="bullet" horiz-adv-x="500" d="M72 283T72 357T124 483T250 535T376 483T429 357T377 231T250 178T124 230Z" />
<glyph unicode="&#x2026;" glyph-name="ellipsis" horiz-adv-x="1000" d="M177 98V0H157V98H177ZM510 98V0H490V98H510ZM843 98V0H823V98H843Z" />
<glyph unicode="&#x2030;" glyph-name="perthousand" horiz-adv-x="1037" d="M21 519Q21 596 61 644T173 692Q247 692 287 645T328 520Q328 448 287 399T173 350Q99 350 60 399T21 519ZM41 519Q41 455 75 413T173 370T272 413T308 519Q308 590 274 631T173 672Q107
672 74 631T41 519ZM349 157Q349 234 389 282T501 330Q575 330 615 283T656 158Q656 86 615 37T501 -12Q427 -12 388 37T349 157ZM369 157Q369 93 403 51T501 8T600 51T636 157Q636 228 602 269T501 310Q435 310 402 269T369 157ZM709 157Q709 234 749 282T861
330Q935 330 975 283T1016 158Q1016 86 975 37T861 -12Q787 -12 748 37T709 157ZM729 157Q729 93 763 51T861 8T960 51T996 157Q996 228 962 269T861 310Q795 310 762 269T729 157ZM89 -34L565 714H588L112 -34H89Z" />
<glyph unicode="&#x2039;" glyph-name="guilsinglleft" horiz-adv-x="259" d="M169 156V121L66 260V276L169 415V380L86 268L169 156Z" />
<glyph unicode="&#x203a;" glyph-name="guilsinglright" horiz-adv-x="259" d="M90 380V415L193 276V260L90 121V156L173 268L90 380Z" />
<glyph unicode="&#x2044;" glyph-name="fraction" horiz-adv-x="167" d="M-166 -34L310 714H333L-143 -34H-166Z" />
<glyph unicode="&#x20ac;" glyph-name="Euro" horiz-adv-x="556" d="M567 73Q480 -15 357 -15Q236 -15 158 65T61 269H0L7 286H60Q58 300 58 307V328Q58 348 60 386H0L7 403H62Q78 531 158 613T364 695Q466 695 550 629L541 613Q458 677 363 677Q246 677 172 600T82
403H489L480 386H80Q78 354 78 338Q78 312 81 286H459L450 269H83Q102 154 174 79T360 3Q485 3 567 100V73Z" />
<glyph unicode="&#x2113;" glyph-name="afii61289" horiz-adv-x="460" d="M411 120L433 107Q371 -6 264 -6Q187 -6 149 49T111 189V203L49 151L34 174Q38 178 67 203T111 242V527Q111 648 150 698T243 749Q297 749 325 708T354 603Q354 436 139 228V204Q139 109
176 64T267 18Q315 18 353 48T411 120ZM139 535V265Q229 360 277 437T326 597Q326 722 239 722Q200 722 170 676T139 535Z" />
<glyph unicode="&#x2122;" glyph-name="trademark" horiz-adv-x="990" d="M232 302V694H82V714H402V694H252V302H232ZM496 302V714H530L692 330L854 714H888V302H868V694H866L702 302H682L518 694H516V302H496Z" />
<glyph unicode="&#x2126;" glyph-name="Omega" horiz-adv-x="734" d="M220 27V29Q155 83 114 166T73 354Q73 505 159 597T370 689Q496 689 578 594T661 357Q661 249 618 163T512 29V27H675V0H454V20Q527 66 578 154T630 354Q630 425 602 494T513 613T369 663Q251
663 178 573T104 354Q104 248 156 156T279 20V0H59V27H220Z" />
<glyph unicode="&#x212e;" glyph-name="estimated" horiz-adv-x="849" d="M815 330H182Q177 330 177 326V134Q177 123 185 112Q286 8 424 8Q575 8 676 125H733Q679 62 598 26T423 -11Q262 -11 148 92T33 340Q33 486 147 589T423 692Q586 692 700 589T815 340V330ZM671
355V548Q671 560 662 571Q559 671 424 671Q287 671 186 568Q177 558 177 544V355Q177 349 182 349H667Q671 349 671 355Z" />
<glyph unicode="&#x2202;" glyph-name="partialdiff" horiz-adv-x="523" d="M101 683L83 703Q147 756 236 756Q331 756 400 662T469 391Q469 282 444 194T363 49T226 -8Q139 -8 93 56T46 212Q46 319 109 386T255 454Q322 454 371 417T437 344H438Q440 359 440
397Q440 549 379 639T236 730Q158 730 101 683ZM227 17H228Q310 17 364 97T431 298Q414 346 367 387T256 428Q184 428 131 366T78 216Q78 129 119 73T227 17Z" />
<glyph unicode="&#x2206;" glyph-name="increment" horiz-adv-x="643" d="M35 0V32L305 699H338L608 32V0H35ZM65 26H574L398 470Q392 485 361 558T322 658H318Q312 637 285 570T251 487L65 26Z" />
<glyph unicode="&#x220f;" glyph-name="product" horiz-adv-x="682" d="M654 650H537V-94H508V650H173V-94H144V650H27V678H654V650Z" />
<glyph unicode="&#x2211;" glyph-name="summation" horiz-adv-x="550" d="M524 -94H22V-71L314 290L37 656V678H510V650H84V646L352 292L67 -60V-63H524V-94Z" />
<glyph unicode="&#x2212;" glyph-name="minus" horiz-adv-x="600" d="M552 243H48V263H552V243Z" />
<glyph unicode="&#x2215;" glyph-name="uni2215" horiz-adv-x="167" d="M-166 -34L310 714H333L-143 -34H-166Z" />
<glyph unicode="&#x2219;" glyph-name="uni2219" horiz-adv-x="278" d="M107 326T107 340T116 363T139 372T161 363T171 340T162 317T139 308T117 317Z" />
<glyph unicode="&#x221a;" glyph-name="radical" horiz-adv-x="551" d="M546 799L326 -152H290L121 319L46 292L36 316L143 356L291 -53Q296 -71 306 -111H307Q308 -102 312 -83T318 -57L518 799H546Z" />
<glyph unicode="&#x221e;" glyph-name="infinity" horiz-adv-x="770" d="M717 283V282Q717 219 674 178T572 136Q543 136 513 151T462 185T402 243Q391 254 386 259Q323 191 293 170Q245 136 195 136Q136 136 95 178T53 280Q53 342 95 384T201 426Q236 426 273
404T331 362T390 300Q422 336 435 349T475 385T527 417T580 426Q643 426 680 386T717 283ZM199 164H201Q225 164 252 178T293 203T336 245T370 279Q343 310 332 322T294 357T244 389T191 399Q142 399 114 363T85 278T116 197T199 164ZM577 399H576Q551 399 523
385T479 355T437 314T405 282Q454 233 472 216T520 182T577 164Q626 164 656 199T686 280Q686 337 655 368T577 399Z" />
<glyph unicode="&#x222b;" glyph-name="integral'" horiz-adv-x="323" d="M311 805L300 782Q286 794 262 794Q229 794 211 773Q172 728 172 590Q172 516 178 336T184 84Q184 -55 136 -113Q107 -147 63 -147Q29 -147 7 -130L18 -106Q46 -120 65 -120Q93 -120 113
-95Q153 -48 153 86Q153 159 147 340T141 593Q141 740 189 788Q221 820 262 820Q292 820 311 805Z" />
<glyph unicode="&#x2248;" glyph-name="approxequal" horiz-adv-x="574" d="M502 404L520 389Q476 302 398 302Q389 302 381 303T364 306T349 311T332 318T316 325T297 335T276 346Q212 380 177 380Q120 380 72 304L53 318Q99 406 184 406Q201 406 219 401T249
390T278 374T301 361Q306 359 317 353T334 345T349 338T366 333T382 330T402 328Q434 328 457 346T502 404ZM502 247L520 233Q477 147 398 147Q378 147 357 153T324 165T276 190Q212 224 177 224Q143 224 120 204T72 148L53 162Q99 250 183 250Q206 250 225 244T272
223T301 207Q325 193 334 189T363 178T403 172Q434 172 457 189T502 247Z" />
<glyph unicode="&#x2260;" glyph-name="notequal" horiz-adv-x="574" d="M395 487L345 381H520V354H332L258 198H520V172H245L187 50L165 62L217 172H53V198H230L304 354H53V381H316L373 500L395 487Z" />
<glyph unicode="&#x2264;" glyph-name="lessequal" horiz-adv-x="574" d="M517 87L60 312V339L517 564V530L94 328V326L517 122V87ZM519 16H53V44H519V16Z" />
<glyph unicode="&#x2265;" glyph-name="greaterequal" horiz-adv-x="574" d="M60 564L517 339V312L60 87V122L482 324V326L60 530V564ZM519 16H53V44H519V16Z" />
<glyph unicode="&#x25ca;" glyph-name="lozenge" horiz-adv-x="553" d="M494 339L289 -43H263L58 339L263 721H289L494 339ZM462 338L295 647Q290 655 283 671T275 691H274Q265 668 254 647L89 340L257 30Q273 -1 275 -14H278Q282 -1 296 30L462 338Z" />
<glyph unicode="&#xfb01;" glyph-name="fi" horiz-adv-x="333" d="M278 514V0H258V514H278ZM278 714V613H258V714H278ZM87 494H-1V514H87V628Q87 657 96 675T122 702T153 712T188 714Q196 714 204 714T220 712T231 710V690Q206 694 184 694Q138 694 123 678T107
621V514H218V494H107V0H87V494Z" />
<glyph unicode="&#xfb02;" glyph-name="fl" horiz-adv-x="333" d="M87 494H-1V514H87V628Q87 657 96 675T122 702T153 712T188 714Q196 714 204 714T220 712T231 710V690Q206 694 184 694Q138 694 123 678T107 621V514H218V494H107V0H87V494ZM278 714V0H258V714H278Z" />
</font>
</defs>
</svg>
