<?xml version="1.0" standalone="no"?> <!DOCTYPE svg PUBLIC "-//W3C//DTD SVG 1.0//EN" "http://www.w3.org/TR/2001/REC-SVG-20010904/DTD/svg10.dtd" > 
<svg xmlns="http://www.w3.org/2000/svg" width="100%" height="100%">
<metadata version="1.0"><uniqueid id="com.myfonts.linotype.neue-helvetica.helvetica-35-thin.wfkit2.gGYB"/><vendor name="MyFonts" url="http://www.myfonts.com/"/><credits><credit name="Edouard Hoffmann" url="http://www.myfonts.com/person/hoffmann/edouard/"/><credit name="Max Miedinger" url="http://www.myfonts.com/person/miedinger/max/"/></credits><description><text lang="en">This is a Webfont from MyFonts. Full information about this font:
http://www.myfonts.com/fonts/linotype/neue-helvetica/
</text></description><license url="http://www.myfonts.com/viewlicense?lid=1631"/><copyright><text lang="en">Copyright © 1988, 1990, 1993, 2002 Adobe Systems Incorporated.  All Rights Reserved. © 1981, 2002 Heidelberger Druckmaschinen AG. All rights reserved.</text></copyright><trademark><text lang="en">Helvetica is a trademark of Heidelberger Druckmaschinen AG, exclusively licensed through Linotype Library GmbH, and may be registered in certain jurisdictions.</text></trademark></metadata>
<defs >
<font id="wf" horiz-adv-x="414" ><font-face
    font-family="HelveticaNeueLT Std Thin"
    units-per-em="1000"
    panose-1="2 11 4 3 2 2 2 2 2 4"
    ascent="927"
    descent="-214"
    alphabetic="0" />
<missing-glyph horiz-adv-x="500" d="M0 0V700H500V0H0ZM250 395L420 650H80L250 395ZM280 350L450 95V605L280 350ZM80 50H420L250 305L80 50ZM50 605V95L220 350L50 605Z" />
<glyph unicode=" " glyph-name="space" horiz-adv-x="278" />
<glyph unicode="!" glyph-name="exclam" horiz-adv-x="259" d="M106 714H154V473L142 183H118L106 473V714ZM155 0H104V103H155V0Z" />
<glyph unicode="&quot;" glyph-name="quotedbl" horiz-adv-x="315" d="M80 485V714H118V485H80ZM197 485V714H235V485H197Z" />
<glyph unicode="#" glyph-name="numbersign" horiz-adv-x="556" d="M414 690H447L416 470H526V437H411L387 264H498V231H382L350 0H317L349 231H180L148 0H115L147 231H30V264H152L176 437H58V470H181L212 690H245L214 470H383L414 690ZM209 437L185 264H354L378
437H209Z" />
<glyph unicode="$" glyph-name="dollar" horiz-adv-x="556" d="M290 347V21Q382 21 441 61T501 183Q501 240 465 276T351 332L290 347ZM258 393V693Q162 689 117 649T72 541Q72 476 109 447T217 402L258 393ZM258 -105V-17Q140 -7 76 52T12 235H50Q50 140 103
84T258 21V354L211 365Q173 374 147 384T92 414T49 465T34 541Q34 559 36 577T52 624T87 674T154 712T258 731V780H290V731Q515 726 522 511H484Q478 606 429 649T290 694V384L368 365Q539 324 539 183Q539 113 502 67T411 3T290 -17V-105H258Z" />
<glyph unicode="%" glyph-name="percent" horiz-adv-x="778" d="M646 -12T572 -12T452 39T406 165Q406 242 451 293T573 344Q650 344 694 294T738 165Q738 91 692 40ZM571 21Q629 21 664 64T700 165Q700 227 666 269T572 311T478 269T444 165Q444 107 479 64T571
21ZM280 346T206 346T86 397T40 523Q40 600 85 651T207 702Q284 702 328 652T372 523Q372 449 326 398ZM205 379Q263 379 298 422T334 523Q334 585 300 627T206 669T112 627T78 523Q78 465 113 422T205 379ZM138 -24L603 714H643L178 -24H138Z" />
<glyph unicode="&amp;" glyph-name="ampersand" horiz-adv-x="593" d="M262 412Q293 432 308 443T348 477T383 525T394 579Q394 618 360 643T282 669T205 644T170 579Q170 548 184 520T227 457T262 412ZM433 137L249 366Q244 363 218 346T183 323T153 301T123
274T102 245T86 210T81 170Q81 103 133 62T255 21Q289 21 319 32T370 60T405 93T426 123T433 137ZM545 0L458 106Q425 51 372 20T255 -12Q162 -12 103 35T43 170Q43 189 46 206T58 240T72 268T94 295T116 317T145 339T172 357T202 376T229 394Q225 399 211 417T190
442T173 466T156 492T144 518T135 548T132 579Q132 632 178 667T282 702Q344 702 388 669T432 579Q432 558 428 540T414 504T397 476T371 450T345 428T314 405T284 384L454 175Q478 238 478 294H516Q511 215 480 143L596 0H545Z" />
<glyph unicode="&apos;" glyph-name="quotesingle" horiz-adv-x="204" d="M83 485V714H121V485H83Z" />
<glyph unicode="(" glyph-name="parenleft" horiz-adv-x="241" d="M228 -184H194Q65 28 65 266Q65 509 196 731H231Q103 514 103 266Q103 21 228 -184Z" />
<glyph unicode=")" glyph-name="parenright" horiz-adv-x="241" d="M13 731H47Q176 519 176 281Q176 38 45 -184H10Q138 33 138 281Q138 526 13 731Z" />
<glyph unicode="*" glyph-name="asterisk" horiz-adv-x="352" d="M161 714H190V584L312 625L322 597L199 556L275 454L253 434L176 540L96 434L72 454L153 556L29 597L38 625L161 584V714Z" />
<glyph unicode="+" glyph-name="plus" horiz-adv-x="600" d="M281 271V504H319V271H552V233H319V0H281V233H48V271H281Z" />
<glyph unicode="," glyph-name="comma" horiz-adv-x="278" d="M100 -126V-93Q134 -78 134 0H113V103H164V0Q164 -102 100 -126Z" />
<glyph unicode="-" glyph-name="hyphen" horiz-adv-x="352" d="M283 253H69V291H283V253Z" />
<glyph unicode="." glyph-name="period" horiz-adv-x="278" d="M164 0H113V103H164V0Z" />
<glyph unicode="/" glyph-name="slash" horiz-adv-x="333" d="M28 -17H-13L305 731H346L28 -17Z" />
<glyph unicode="0" glyph-name="zero" horiz-adv-x="556" d="M335 -12T278 -12T176 9T104 65T59 148T35 244T28 345T34 446T59 542T104 624T176 680T278 702T380 681T452 625T497 542T521 446T528 345T522 244T497 148T452 66T380 10ZM228 21T278 21T366 41T427
94T465 171T485 257T490 345T485 432T465 518T428 595T367 648T278 669T190 649T129 596T91 519T71 433T66 345T71 258T91 172T128 95T189 42Z" />
<glyph unicode="1" glyph-name="one" horiz-adv-x="556" d="M331 690V0H293V616Q221 539 108 528V561Q232 580 297 690H331Z" />
<glyph unicode="2" glyph-name="two" horiz-adv-x="556" d="M94 38H506V0H46Q49 46 66 85T118 158T181 213T257 267Q294 292 308 301T352 334T396 373T426 412T450 461T457 514Q457 582 407 625T287 669Q196 669 149 610T101 457H63Q75 702 281 702Q374 702 434
653T495 513Q495 470 480 432T434 360T374 303T301 250Q191 177 159 147Q98 92 94 38Z" />
<glyph unicode="3" glyph-name="three" horiz-adv-x="556" d="M41 228H79Q75 132 129 77T280 21Q361 21 419 66T478 191Q478 238 458 272T404 323T331 346T246 350V383Q287 381 323 387T391 408T443 454T462 528Q462 596 407 632T280 669Q193 669 147 616T96 472H58Q59
575 118 638T280 702Q372 702 436 658T500 528Q500 466 463 422T365 370V368Q434 360 475 311T516 191Q516 93 449 41T280 -12Q164 -12 100 51T41 228Z" />
<glyph unicode="4" glyph-name="four" horiz-adv-x="556" d="M365 690H403V209H519V176H403V0H365V176H29V214L365 690ZM365 209V638H363L67 209H365Z" />
<glyph unicode="5" glyph-name="five" horiz-adv-x="556" d="M65 333L137 690H486V657H167L108 382L110 380Q170 463 281 463Q384 463 449 397T515 228Q515 124 450 56T281 -12T108 49T44 211H82Q81 127 138 74T281 21Q367 21 422 81T477 228Q477 313 421 371T281
430Q171 430 104 333H65Z" />
<glyph unicode="6" glyph-name="six" horiz-adv-x="556" d="M206 21T288 21T425 79T481 220T426 363T288 423Q204 423 149 364T93 220T149 78ZM507 520H469Q458 587 411 628T296 669Q250 669 214 653T156 606T117 541T94 463T83 385T80 310L82 308Q104 374 161
415T288 456Q389 456 454 389T519 220Q519 120 454 54T288 -12Q218 -12 169 14T93 87T54 189T42 311Q42 367 47 417T70 522T114 614T188 677T296 702Q383 702 440 654T507 520Z" />
<glyph unicode="7" glyph-name="seven" horiz-adv-x="556" d="M56 657V690H501V652Q451 597 419 557T347 455T282 331T235 185T204 0H160Q166 82 181 152T227 305T318 476T463 657H56Z" />
<glyph unicode="8" glyph-name="eight" horiz-adv-x="556" d="M479 198Q479 279 423 319T278 359T134 319T77 198Q77 111 134 66T278 21T421 66T479 198ZM65 529Q65 619 126 660T278 702T430 661T491 529Q491 470 459 430T364 378V376Q434 368 475 320T517 198Q517
95 450 42T278 -12T106 41T39 198Q39 272 80 320T192 376V378Q130 390 98 430T65 529ZM453 529Q453 602 404 635T278 669T153 636T103 529Q103 460 153 426T278 392T402 426T453 529Z" />
<glyph unicode="9" glyph-name="nine" horiz-adv-x="556" d="M279 267Q363 267 418 326T474 470Q474 553 418 611T279 669T140 611T84 470Q84 387 140 327T279 267ZM55 170H93Q104 103 151 62T266 21Q312 21 348 38T406 85T445 150T468 227T479 303T482 372L480
374Q457 312 406 273T279 234Q176 234 111 300T46 470Q46 572 111 637T279 702Q520 702 520 379Q520 323 515 273T492 168T448 76T374 13T266 -12Q179 -12 122 36T55 170Z" />
<glyph unicode=":" glyph-name="colon" horiz-adv-x="278" d="M113 514H164V411H113V514ZM164 0H113V103H164V0Z" />
<glyph unicode=";" glyph-name="semicolon" horiz-adv-x="278" d="M100 -126V-93Q134 -78 134 0H113V103H164V0Q164 -102 100 -126ZM113 514H164V411H113V514Z" />
<glyph unicode="&lt;" glyph-name="less" horiz-adv-x="600" d="M554 514V472L79 254L554 34V-8L46 228V280L554 514Z" />
<glyph unicode="=" glyph-name="equal" horiz-adv-x="600" d="M552 369V331H48V369H552ZM552 175V137H48V175H552Z" />
<glyph unicode="&gt;" glyph-name="greater" horiz-adv-x="600" d="M46 -8V34L521 252L46 472V514L554 278V226L46 -8Z" />
<glyph unicode="?" glyph-name="question" horiz-adv-x="519" d="M81 493H43Q43 602 100 666T265 731Q350 731 405 685T461 552Q461 512 446 478T418 429T372 382Q349 362 337 350T308 312T282 255T274 181H236Q236 254 258 299T324 386Q355 415 373 435T407 487T423
552Q423 622 377 657T262 693Q175 693 128 638T81 493ZM231 0V103H282V0H231Z" />
<glyph unicode="@" glyph-name="at" horiz-adv-x="800" d="M425 547Q346 547 290 461T233 287Q233 232 262 199T336 165Q364 165 395 187T452 244Q480 283 498 336T517 429Q517 447 514 463T503 501T474 534T425 547ZM609 560L513 264Q497 216 497 204Q497 189
508 180T536 170Q603 170 659 253T716 423Q716 543 625 620T417 698Q280 698 182 596T84 353Q84 210 186 113T419 16Q501 16 575 57T694 168H738Q692 83 605 33T419 -17Q260 -17 153 92T46 360Q46 513 155 622T415 731Q558 731 656 643T754 420Q754 310 680 221T525
132Q497 132 479 150T459 203H457Q408 132 323 132Q267 132 231 176T195 282Q195 392 263 486T431 580Q477 580 507 554T543 489H545L568 560H609Z" />
<glyph unicode="A" glyph-name="A" horiz-adv-x="593" d="M275 714H323L605 0H558L468 229H126L35 0H-12L275 714ZM140 267H454L301 671H299L140 267Z" />
<glyph unicode="B" glyph-name="B" horiz-adv-x="630" d="M107 352V38H349Q445 38 499 80T554 200Q554 257 521 293T445 340T349 352H107ZM63 0V714H349Q467 714 520 661T574 529Q574 471 536 428T435 377L437 375Q444 376 461 372T502 356T547 325T583 274T598
200Q598 104 531 52T349 0H63ZM107 676V390H349Q436 390 483 430T530 537Q530 609 479 642T349 676H107Z" />
<glyph unicode="C" glyph-name="C" horiz-adv-x="704" d="M663 501H619Q605 589 537 641T376 693Q240 693 160 597T80 357T160 118T376 21Q478 21 551 98T631 278H675Q663 150 579 67T376 -17Q220 -17 128 89T36 357T128 625T376 731Q447 731 502 708T586 654T634
586T657 530T663 501Z" />
<glyph unicode="D" glyph-name="D" horiz-adv-x="667" d="M107 676V38H299Q341 38 379 47T456 80T521 138T566 230T583 358Q583 441 562 502T511 596T438 648T362 671T290 676H107ZM63 0V714H297Q389 714 455 685T558 603T610 491T627 358Q627 198 543 99T295 0H63Z" />
<glyph unicode="E" glyph-name="E" horiz-adv-x="560" d="M107 38H548V0H63V714H543V676H107V390H517V352H107V38Z" />
<glyph unicode="F" glyph-name="F" horiz-adv-x="514" d="M471 352H107V0H63V714H511V676H107V390H471V352Z" />
<glyph unicode="G" glyph-name="G" horiz-adv-x="741" d="M382 350H683V0H645V152H643Q617 75 543 29T373 -17Q216 -17 127 88T37 353Q37 512 128 621T374 731Q487 731 570 667T671 493H629Q604 587 538 640T375 693Q237 693 159 594T81 353Q81 209 157 115T375
21Q502 21 576 101T645 312H382V350Z" />
<glyph unicode="H" glyph-name="H" horiz-adv-x="670" d="M563 352H107V0H63V714H107V390H563V714H607V0H563V352Z" />
<glyph unicode="I" glyph-name="I" horiz-adv-x="170" d="M63 0V714H107V0H63Z" />
<glyph unicode="J" glyph-name="J" horiz-adv-x="481" d="M20 227H64Q61 183 65 150T84 85T132 38T217 21Q262 21 293 34T340 63T364 112T373 165T374 224Q374 233 374 237V714H418V222Q418 195 418 182T414 139T404 92T383 52T348 15T296 -7T222 -17Q167 -17
128 -1T68 37T36 95T23 159T20 227Z" />
<glyph unicode="K" glyph-name="K" horiz-adv-x="613" d="M63 0V714H107V303L556 714H613L287 417L633 0H578L255 387L107 252V0H63Z" />
<glyph unicode="L" glyph-name="L" horiz-adv-x="500" d="M63 0V714H107V38H512V0H63Z" />
<glyph unicode="M" glyph-name="M" horiz-adv-x="809" d="M63 0V714H126L405 49H407L683 714H746V0H702V660H700L428 0H384L109 660H107V0H63Z" />
<glyph unicode="N" glyph-name="N" horiz-adv-x="678" d="M63 0V714H118L569 59H571V714H615V0H563L109 660H107V0H63Z" />
<glyph unicode="O" glyph-name="O" horiz-adv-x="741" d="M710 518T710 357T619 90T371 -17T123 89T31 357T123 625T371 731T618 625ZM75 500T75 357T155 118T371 21Q506 21 586 117T666 357T586 596T371 693Q235 693 155 597Z" />
<glyph unicode="P" glyph-name="P" horiz-adv-x="591" d="M107 676V356H358Q447 356 489 403T531 515Q531 539 525 563T502 614T450 659T364 676H107ZM63 0V714H367Q395 714 420 710T475 693T525 659T561 600T575 514Q575 420 517 369T351 318H107V0H63Z" />
<glyph unicode="Q" glyph-name="Q" horiz-adv-x="741" d="M453 182L568 99Q666 194 666 357Q666 500 586 596T371 693Q235 693 155 597T75 357T155 118T371 21Q468 21 538 74L430 151L453 182ZM691 -37L573 48Q489 -17 371 -17Q215 -17 123 89T31 357T123 625T371
731T618 625T710 357Q710 176 603 74L714 -6L691 -37Z" />
<glyph unicode="R" glyph-name="R" horiz-adv-x="630" d="M107 363H361Q444 363 493 403T543 527Q543 603 492 639T361 676H107V363ZM63 0V714H361Q464 714 525 671T587 530Q587 458 546 409T434 347V345Q507 337 537 297T573 192Q575 169 575 122T580 46T597
0H548Q536 22 533 58T531 128T529 200Q521 259 485 292T361 325H107V0H63Z" />
<glyph unicode="S" glyph-name="S" horiz-adv-x="630" d="M574 510H530Q526 599 465 646T301 693Q268 693 236 686T174 662T124 614T105 541Q105 456 202 419Q239 404 348 382Q393 373 421 366T485 343T542 308T577 257T592 184Q592 131 569 91T507 28T427 -6T341
-17Q205 -17 122 44T40 236H84Q78 126 151 74T341 21Q389 21 433 35T513 87T548 184Q548 218 535 244T501 286T448 314T386 334T315 349Q308 350 304 351Q266 359 243 364T188 380T137 404T98 436T70 481T61 541Q61 636 133 683T301 731Q420 731 494 677T574 510Z"
/>
<glyph unicode="T" glyph-name="T" horiz-adv-x="519" d="M237 676H-14V714H533V676H281V0H237V676Z" />
<glyph unicode="U" glyph-name="U" horiz-adv-x="672" d="M63 714H107V286Q107 254 110 225T126 157T162 89T228 41T331 21Q456 21 510 89T565 286V714H609V286Q609 -17 331 -17Q63 -17 63 286V714Z" />
<glyph unicode="V" glyph-name="V" horiz-adv-x="556" d="M32 714L277 38H279L526 714H570L303 0H252L-14 714H32Z" />
<glyph unicode="W" glyph-name="W" horiz-adv-x="889" d="M200 0L-6 714H39L225 47H227L416 714H471L663 47H665L848 714H895L690 0H640L444 676H442L249 0H200Z" />
<glyph unicode="X" glyph-name="X" horiz-adv-x="556" d="M251 367L1 714H52L278 400L509 714H559L307 367L573 0H520L278 334L35 0H-17L251 367Z" />
<glyph unicode="Y" glyph-name="Y" horiz-adv-x="574" d="M287 336L546 714H595L308 299V0H264V299L-21 714H29L287 336Z" />
<glyph unicode="Z" glyph-name="Z" horiz-adv-x="537" d="M28 676V714H529V676L45 38H538V0H-1V38L481 676H28Z" />
<glyph unicode="[" glyph-name="bracketleft" horiz-adv-x="241" d="M231 698H132V-151H231V-184H94V731H231V698Z" />
<glyph unicode="\" glyph-name="backslash" horiz-adv-x="333" d="M346 -17H305L-13 731H28L346 -17Z" />
<glyph unicode="]" glyph-name="bracketright" horiz-adv-x="241" d="M10 -151H109V698H10V731H147V-184H10V-151Z" />
<glyph unicode="^" glyph-name="asciicircum" horiz-adv-x="600" d="M561 237H519L301 657L81 237H39L275 690H327L561 237Z" />
<glyph unicode="_" glyph-name="underscore" horiz-adv-x="500" d="M500 -125H0V-75H500V-125Z" />
<glyph unicode="`" glyph-name="grave" horiz-adv-x="167" d="M141 591H104L-30 731H21L141 591Z" />
<glyph unicode="a" glyph-name="a" horiz-adv-x="500" d="M397 196V292Q386 280 364 273T322 263T266 258T211 252Q140 244 105 217T70 133Q70 84 105 53T205 21Q254 21 291 37T347 74T379 123T394 167T397 196ZM435 392V95Q435 75 436 65T445 44T469 33Q479 33
497 36V4Q475 0 466 0Q425 0 411 19T397 75V102H395Q376 53 325 21T204 -12Q32 -12 32 133Q32 168 44 194T74 236T118 263T168 278T221 285Q266 288 293 291T342 300T373 311T389 330T397 355T398 392Q398 403 392 418T371 451T327 481T255 493Q185 493 143 458T97
356H59Q63 440 113 483T255 526Q435 526 435 392Z" />
<glyph unicode="b" glyph-name="b" horiz-adv-x="556" d="M300 21Q364 21 407 59T468 151T485 269Q485 361 436 427T300 493Q203 493 154 432T104 269Q104 165 153 93T300 21ZM65 0V714H103V405H105Q126 463 180 494T300 526Q409 526 466 454T523 269Q523 199
506 146T465 64T409 17T351 -6T300 -12Q253 -12 215 3T154 42T121 83T105 115H103V0H65Z" />
<glyph unicode="c" glyph-name="c" horiz-adv-x="519" d="M481 355H443Q438 421 390 457T269 493Q177 493 124 425T71 262Q71 153 122 87T269 21Q340 21 389 65T448 181H486Q474 91 414 40T269 -12Q151 -12 92 66T33 262Q33 374 96 450T269 526Q357 526 415 483T481 355Z" />
<glyph unicode="d" glyph-name="d" horiz-adv-x="556" d="M262 21Q354 21 403 90T452 256Q452 354 403 423T261 493Q165 493 118 426T70 256Q70 158 119 90T262 21ZM453 0V110H451Q388 -12 254 -12Q144 -12 88 64T32 256Q32 376 90 451T261 526Q326 526 378 492T451
399H453V714H491V0H453Z" />
<glyph unicode="e" glyph-name="e" horiz-adv-x="519" d="M488 252H73Q71 155 121 88T262 21Q335 21 383 62T446 174H484Q469 84 412 36T262 -12Q154 -12 94 62T35 248Q33 362 92 444T262 526Q377 526 435 448T488 252ZM73 285H450Q448 371 398 432T262 493Q181
493 131 431T73 285Z" />
<glyph unicode="f" glyph-name="f" horiz-adv-x="241" d="M92 481H0V514H92V620Q92 671 123 696T205 722Q225 722 250 717V684Q225 689 205 689Q130 689 130 617V514H237V481H130V0H92V481Z" />
<glyph unicode="g" glyph-name="g" horiz-adv-x="537" d="M255 493Q167 493 119 428T71 273Q71 178 119 115T255 52Q344 52 393 116T442 273T394 429T255 493ZM443 514H481V27Q481 13 481 2T476 -35T464 -80T440 -123T401 -162T342 -187T259 -196Q66 -196 58 -36H96Q102
-101 147 -132T260 -163Q311 -163 348 -147T402 -110T430 -60T441 -15T443 18V136H441Q386 19 255 19Q146 19 90 89T33 273Q33 380 92 453T255 526Q317 526 369 495T441 407H443V514Z" />
<glyph unicode="h" glyph-name="h" horiz-adv-x="519" d="M56 714H94V404H96Q115 460 166 493T280 526Q323 526 356 516T408 486T439 447T456 399T462 356T463 318V0H425V325Q425 493 279 493Q194 493 144 434T94 278V0H56V714Z" />
<glyph unicode="i" glyph-name="i" horiz-adv-x="168" d="M103 0H65V514H103V0ZM103 611H65V714H103V611Z" />
<glyph unicode="j" glyph-name="j" horiz-adv-x="168" d="M65 514H103V-55Q103 -115 81 -149T-2 -184Q-24 -184 -34 -183V-150Q-22 -152 -9 -152Q32 -152 48 -131T65 -52V514ZM103 611H65V714H103V611Z" />
<glyph unicode="k" glyph-name="k" horiz-adv-x="463" d="M58 0V714H96V241L413 514H468L243 322L484 0H432L213 293L96 194V0H58Z" />
<glyph unicode="l" glyph-name="l" horiz-adv-x="168" d="M65 714H103V0H65V714Z" />
<glyph unicode="m" glyph-name="m" horiz-adv-x="796" d="M57 0V514H95V409H97Q109 458 155 492T258 526Q326 526 365 494T413 417H415Q462 526 578 526Q651 526 695 482T739 351V0H701V352Q701 389 691 416T667 458T634 480T603 491T578 493Q506 493 462 444T417
304V0H379V352Q379 397 366 428T330 471T292 488T258 493Q195 493 145 444T95 304V0H57Z" />
<glyph unicode="n" glyph-name="n" horiz-adv-x="519" d="M56 0V514H94V404H96Q115 460 166 493T280 526Q323 526 356 516T408 486T439 447T456 399T462 356T463 318V0H425V325Q425 493 279 493Q194 493 144 434T94 278V0H56Z" />
<glyph unicode="o" glyph-name="o" horiz-adv-x="537" d="M32 143T32 257T95 448T268 526T440 449T504 257T441 66T268 -12T96 65ZM70 355T70 257T123 90T268 21T413 90T466 257T413 424T268 493T123 424Z" />
<glyph unicode="p" glyph-name="p" horiz-adv-x="556" d="M292 21Q387 21 436 87T485 256Q485 354 437 423T292 493T150 425T104 256Q104 207 113 167T143 93T202 40T292 21ZM103 514V396H105Q120 444 168 485T292 526Q405 526 464 449T523 256Q523 134 465 61T292
-12Q225 -12 176 17T105 107H103V-184H65V514H103Z" />
<glyph unicode="q" glyph-name="q" horiz-adv-x="556" d="M261 21Q354 21 403 90T452 258Q452 355 403 424T262 493Q169 493 120 425T70 258Q70 156 117 89T261 21ZM453 -184V115H451Q431 56 379 22T261 -12Q149 -12 91 63T32 258Q32 373 88 449T254 526Q388 526
451 404H453V514H491V-184H453Z" />
<glyph unicode="r" glyph-name="r" horiz-adv-x="278" d="M94 514V400H97Q112 451 168 485T294 517V479Q213 489 152 429Q122 398 110 368T94 281V0H56V514H94Z" />
<glyph unicode="s" glyph-name="s" horiz-adv-x="481" d="M36 171H74Q78 101 125 61T244 21Q272 21 298 26T350 42T391 75T407 130Q407 197 330 224Q306 233 231 248Q190 256 165 264T111 288T68 330T54 394Q54 442 83 473T152 515T240 526Q327 526 378 486T430
362H392Q391 429 350 461T240 493Q180 493 136 469T92 394Q92 367 104 348T140 317T189 298T247 284Q258 282 263 281Q308 273 335 265T391 240T432 196T445 130Q445 90 427 61T378 17T314 -5T244 -12Q153 -12 96 36T36 171Z" />
<glyph unicode="t" glyph-name="t" horiz-adv-x="259" d="M245 514V481H133V122Q133 64 158 48T244 33V0Q211 -2 187 1T140 15T105 53T95 122V481H0V514H95V674H133V514H245Z" />
<glyph unicode="u" glyph-name="u" horiz-adv-x="519" d="M463 514V0H425V110H423Q404 54 353 21T239 -12Q196 -12 163 -2T111 28T80 67T63 115T57 158T56 196V514H94V189Q94 21 240 21Q325 21 375 80T425 236V514H463Z" />
<glyph unicode="v" glyph-name="v" horiz-adv-x="444" d="M446 514L252 0H205L-2 514H42L228 44H230L404 514H446Z" />
<glyph unicode="w" glyph-name="w" horiz-adv-x="704" d="M39 514L184 44H186L326 514H377L518 44H520L664 514H706L541 0H494L353 466H351L209 0H161L-2 514H39Z" />
<glyph unicode="x" glyph-name="x" horiz-adv-x="444" d="M-6 0L196 270L8 514H61L222 299L384 514H433L247 270L450 0H398L222 241L42 0H-6Z" />
<glyph unicode="y" glyph-name="y" horiz-adv-x="444" d="M209 3L-6 514H39L230 45L406 514H449L229 -55Q192 -143 169 -161Q150 -176 124 -180T49 -184V-151Q90 -151 113 -144T156 -118Q172 -102 209 3Z" />
<glyph unicode="z" glyph-name="z" horiz-adv-x="426" d="M55 33H417V0H9V36L354 481H36V514H401V478L55 33Z" />
<glyph unicode="{" glyph-name="braceleft" horiz-adv-x="333" d="M293 731V698H245Q215 698 204 676T193 595V438Q193 400 186 371T173 326T153 298T137 283T123 276Q124 275 132 269T147 257T162 238T178 209T188 167T193 109V-48Q193 -106 204 -128T245 -151H293V-184H243Q199
-184 177 -158T155 -66V92Q155 252 83 254V292Q155 294 155 454V613Q155 678 177 704T243 731H293Z" />
<glyph unicode="|" glyph-name="bar" horiz-adv-x="222" d="M92 -214V786H130V-214H92Z" />
<glyph unicode="}" glyph-name="braceright" horiz-adv-x="333" d="M40 -184V-151H88Q118 -151 129 -129T140 -48V109Q140 141 144 167T155 209T170 238T186 257T200 269T210 276Q177 294 162 324Q140 367 140 438V595Q140 653 129 675T88 698H40V731H90Q134 731
156 705T178 613V454Q178 294 250 292V254Q178 252 178 92V-66Q178 -131 156 -157T90 -184H40Z" />
<glyph unicode="~" glyph-name="asciitilde" horiz-adv-x="600" d="M500 312L528 284Q473 199 407 199Q367 199 293 237Q233 267 201 267Q135 267 102 192L73 222Q99 265 125 285T195 305Q234 305 306 273Q312 270 327 262T352 250T377 241T408 237Q435 237 460
260T500 312Z" />
<glyph unicode="&#xa0;" glyph-name="uni00A0" horiz-adv-x="278" />
<glyph unicode="&#xa1;" glyph-name="exclamdown" horiz-adv-x="259" d="M153 -184H105V57L117 347H141L153 57V-184ZM104 535H155V432H104V535Z" />
<glyph unicode="&#xa2;" glyph-name="cent" horiz-adv-x="556" d="M272 21V493Q187 487 138 420T89 262Q89 158 136 92T272 21ZM272 -118V-12Q162 -7 107 71T51 262Q51 370 110 445T272 526V615H304V526Q385 522 438 479T499 355H461Q456 417 414 452T304 493V21Q369
26 413 70T466 181H504Q492 95 438 44T304 -12V-118H272Z" />
<glyph unicode="&#xa3;" glyph-name="sterling" horiz-adv-x="556" d="M50 330V363H110Q50 471 50 539Q50 629 116 680T277 731Q394 731 454 669T512 484H474Q472 693 278 693Q191 693 140 652T88 541Q88 516 95 489T110 446T133 402T153 363H313V330H172Q195
295 195 222Q195 169 167 118T96 31L98 29Q150 65 192 65Q237 65 296 42Q359 21 387 21Q427 21 456 38T522 89L544 56Q475 -17 393 -17Q351 -17 285 5Q221 27 189 27Q165 27 143 21T109 7T69 -17L44 17Q97 68 127 116T157 224Q157 286 128 330H50Z" />
<glyph unicode="&#xa4;" glyph-name="currency" horiz-adv-x="556" d="M519 131L492 104L439 158Q369 97 277 97T117 158L62 102L35 129L91 184Q32 254 30 345Q30 438 91 506L34 562L61 589L117 533Q186 591 277 593Q369 593 439 532L493 587L520 560L465 506Q526
438 526 345T465 185L519 131ZM195 135T278 135T421 196T482 345T422 493T278 555T135 494T74 345T134 197Z" />
<glyph unicode="&#xa5;" glyph-name="yen" horiz-adv-x="556" d="M-7 714H41L279 340L518 714H563L325 342H417V309H297V231H417V198H297V0H259V198H139V231H259V309H139V342H231L-7 714Z" />
<glyph unicode="&#xa6;" glyph-name="brokenbar" horiz-adv-x="222" d="M92 -89V161H130V-89H92ZM92 411V661H130V411H92Z" />
<glyph unicode="&#xa7;" glyph-name="section" horiz-adv-x="556" d="M340 359L188 449Q148 434 120 405T91 337Q91 305 110 277T147 236T199 202Q322 128 364 101Q372 99 393 110T431 135Q466 166 466 213Q466 237 455 259T423 300T384 331T340 359ZM450 536H412Q415
600 378 649T276 698Q229 700 189 670T148 593Q148 562 161 536T200 489T251 453T313 419Q321 415 325 413Q361 394 378 384T425 354T467 316T492 271T504 213Q504 106 393 77Q424 48 437 22T450 -46Q450 -117 403 -150T282 -184Q197 -184 149 -131T100 9H138Q140
-62 176 -106T281 -151Q343 -151 377 -125T412 -46Q412 -16 399 9T361 55T308 92T246 127Q243 128 241 129T237 131T232 134Q191 158 173 169T126 202T84 241T62 283T53 337Q53 382 85 418T164 471Q133 493 119 531T110 593Q110 653 160 693T276 731Q360 731 404
679T450 536Z" />
<glyph unicode="&#xa8;" glyph-name="dieresis" horiz-adv-x="167" d="M26 594H-18V697H26V594ZM184 594H140V697H184V594Z" />
<glyph unicode="&#xa9;" glyph-name="copyright" horiz-adv-x="800" d="M401 698Q257 698 161 600T64 358Q64 215 161 116T401 16Q543 16 639 115T736 358Q736 502 640 600T401 698ZM599 438H561Q550 495 509 527T409 560Q322 560 273 504T223 359Q223 272 274
213T411 153Q470 153 508 187T561 281H599Q590 209 537 165T411 120Q310 120 248 187T185 358Q185 462 245 527T408 593Q483 593 536 552T599 438ZM245 731T400 731T664 622T774 357T665 93T400 -17T136 92T26 357T135 621Z" />
<glyph unicode="&#xaa;" glyph-name="ordfeminine" horiz-adv-x="310" d="M250 498V554Q243 547 229 543T202 537T167 534T133 530Q45 520 45 462Q45 432 66 413T125 393Q164 393 191 406T230 440T246 474T250 498ZM61 596H29Q41 702 161 702Q282 702 282 617V439Q282
402 300 402Q310 402 318 404V377Q304 375 298 375Q271 375 262 386T253 420V434H251Q241 405 208 386T128 366Q13 366 13 462Q13 548 136 557Q217 563 234 573T251 622Q251 648 226 661T158 675Q117 675 91 654T61 596Z" />
<glyph unicode="&#xab;" glyph-name="guillemotleft" horiz-adv-x="389" d="M181 121L67 252V292L181 423V372L96 272L181 170V121ZM309 121L195 252V292L309 423V372L224 272L309 170V121Z" />
<glyph unicode="&#xac;" glyph-name="logicalnot" horiz-adv-x="600" d="M514 108V331H48V369H552V108H514Z" />
<glyph unicode="&#xad;" glyph-name="uni00AD" horiz-adv-x="352" d="M283 253H69V291H283V253Z" />
<glyph unicode="&#xae;" glyph-name="registered" horiz-adv-x="800" d="M264 136V578H430Q574 578 574 456Q574 405 543 376T460 339L592 136H550L417 340H302V136H264ZM302 545V373H396Q426 373 447 375T490 386T524 412T536 457Q536 504 504 524T424 545H302ZM401
698Q257 698 161 600T64 357Q64 215 161 116T401 16Q543 16 639 115T736 358Q736 502 640 600T401 698ZM245 731T400 731T664 622T774 357T665 93T400 -17T136 92T26 357T135 621Z" />
<glyph unicode="&#xaf;" glyph-name="overscore" horiz-adv-x="167" d="M205 629H-37V662H205V629Z" />
<glyph unicode="&#xb0;" glyph-name="degree" horiz-adv-x="400" d="M245 669T200 669T125 637T95 559T125 482T200 449T275 481T305 559T275 636ZM260 416T200 416T99 457T57 559T98 660T200 702T301 661T343 559T302 458Z" />
<glyph unicode="&#xb1;" glyph-name="plusminus" horiz-adv-x="600" d="M281 315V504H319V315H552V277H319V88H281V277H48V315H281ZM48 0V38H552V0H48Z" />
<glyph unicode="&#xb2;" glyph-name="twosuperior" horiz-adv-x="333" d="M48 302H316V275H16Q17 313 39 346T86 398T151 442Q186 463 200 473T238 502T271 542T281 585Q281 622 253 648T170 675Q63 675 56 551H24Q29 624 62 663T170 702Q233 702 273 672T313
584Q313 539 280 504T187 430Q180 426 161 414T134 398T112 383T90 365T74 348T58 326T48 302Z" />
<glyph unicode="&#xb3;" glyph-name="threesuperior" horiz-adv-x="333" d="M21 415H53Q51 359 86 326T182 293Q233 293 270 320T308 391Q308 442 265 463T158 481V508Q215 505 256 525T298 593Q298 632 262 653T182 675Q126 675 96 644T64 559H32Q33 625 73 663T187
702Q247 702 288 675T330 593Q330 556 306 530T242 498V496Q287 492 313 463T340 391Q340 330 297 298T187 266Q104 266 61 304T21 415Z" />
<glyph unicode="&#xb4;" glyph-name="acute" horiz-adv-x="167" d="M26 591L146 731H197L63 591H26Z" />
<glyph unicode="&#xb5;" glyph-name="mu" horiz-adv-x="519" d="M463 514V0H425V110H423Q404 54 353 21T239 -12Q139 -12 96 44H94V-184H56V514H94V189Q94 21 240 21Q325 21 375 80T425 236V514H463Z" />
<glyph unicode="&#xb6;" glyph-name="paragraph" horiz-adv-x="600" d="M273 -146V324Q186 324 126 381T66 518Q66 613 124 663T289 714H506V-146H468V681H311V-146H273Z" />
<glyph unicode="&#xb7;" glyph-name="middot" horiz-adv-x="278" d="M85 296T85 317T101 354T139 371T177 355T194 317Q194 295 178 279T139 262Q118 262 102 279Z" />
<glyph unicode="&#xb8;" glyph-name="cedilla" horiz-adv-x="167" d="M83 0H117L69 -56L71 -58Q91 -49 108 -49Q139 -49 161 -67T183 -122Q183 -196 81 -196Q31 -196 -9 -175L2 -151Q51 -169 82 -169Q108 -169 126 -158T145 -122Q145 -100 129 -88T96 -76Q69 -76
43 -88L27 -75L83 0Z" />
<glyph unicode="&#xb9;" glyph-name="onesuperior" horiz-adv-x="333" d="M208 693V275H176V646Q130 599 59 593V620Q135 631 179 693H208Z" />
<glyph unicode="&#xba;" glyph-name="ordmasculine" horiz-adv-x="334" d="M241 366T167 366T51 413T9 534T51 655T167 702T283 655T325 534T283 413ZM105 393T167 393T261 433T293 534T261 634T167 675T73 635T41 534T73 434Z" />
<glyph unicode="&#xbb;" glyph-name="guillemotright" horiz-adv-x="389" d="M80 121V170L165 272L80 372V423L194 292V252L80 121ZM208 121V170L293 272L208 372V423L322 292V252L208 121Z" />
<glyph unicode="&#xbc;" glyph-name="onequarter" horiz-adv-x="834" d="M626 414H673V131H744V104H673V0H641V104H426V131L626 414ZM641 131V381H639L462 131H641ZM151 -24L616 714H656L191 -24H151ZM243 693V275H211V646Q165 599 94 593V620Q170 631 214 693H243Z" />
<glyph unicode="&#xbd;" glyph-name="onehalf" horiz-adv-x="834" d="M121 -24L586 714H626L161 -24H121ZM213 693V275H181V646Q135 599 64 593V620Q140 631 184 693H213ZM517 27H783V0H483Q484 38 506 71T553 123T618 167Q653 188 667 198T705 227T738 267T748
310Q748 347 720 373T637 400Q530 400 523 276H491Q496 349 529 388T637 427Q700 427 740 397T780 309Q780 264 747 229T654 155Q647 151 628 139T602 123T580 108T558 90T542 73T527 51T517 27Z" />
<glyph unicode="&#xbe;" glyph-name="threequarters" horiz-adv-x="834" d="M659 414H706V131H777V104H706V0H674V104H459V131L659 414ZM201 -24L666 714H706L241 -24H201ZM674 131V381H672L495 131H674ZM36 415H68Q66 359 101 326T197 293Q248 293 285 320T323
391Q323 442 280 463T173 481V508Q230 505 271 525T313 593Q313 632 277 653T197 675Q141 675 111 644T79 559H47Q48 625 88 663T202 702Q262 702 303 675T345 593Q345 556 321 530T257 498V496Q302 492 328 463T355 391Q355 330 312 298T202 266Q119 266 76 304T36
415Z" />
<glyph unicode="&#xbf;" glyph-name="questiondown" horiz-adv-x="519" d="M437 42H475Q475 -67 418 -131T253 -196Q168 -196 113 -150T57 -17Q57 23 72 57T100 106T146 153Q169 173 181 185T210 223T236 280T244 354H282Q282 281 260 236T194 149Q163 120 145
100T111 48T95 -17Q95 -87 141 -122T256 -158Q343 -158 390 -103T437 42ZM287 535V432H236V535H287Z" />
<glyph unicode="&#xc0;" glyph-name="Agrave" horiz-adv-x="593" d="M275 714H323L605 0H558L468 229H126L35 0H-12L275 714ZM140 267H454L301 671H299L140 267ZM354 764H317L183 904H234L354 764Z" />
<glyph unicode="&#xc1;" glyph-name="Aacute" horiz-adv-x="593" d="M275 714H323L605 0H558L468 229H126L35 0H-12L275 714ZM140 267H454L301 671H299L140 267ZM239 764L359 904H410L276 764H239Z" />
<glyph unicode="&#xc2;" glyph-name="Acircumflex" horiz-adv-x="593" d="M275 714H323L605 0H558L468 229H126L35 0H-12L275 714ZM140 267H454L301 671H299L140 267ZM276 904H316L432 764H394L296 879L199 764H161L276 904Z" />
<glyph unicode="&#xc3;" glyph-name="Atilde" horiz-adv-x="593" d="M275 714H323L605 0H558L468 229H126L35 0H-12L275 714ZM140 267H454L301 671H299L140 267ZM181 775H152Q155 810 174 837Q195 865 229 865Q249 865 299 838Q304 835 316 828T334 818T350 811T367
808Q386 808 397 825T412 865H441Q436 825 420 804Q398 775 365 775Q343 775 296 804Q250 832 226 832Q190 832 181 775Z" />
<glyph unicode="&#xc4;" glyph-name="Adieresis" horiz-adv-x="593" d="M275 714H323L605 0H558L468 229H126L35 0H-12L275 714ZM140 267H454L301 671H299L140 267ZM239 767H195V870H239V767ZM397 767H353V870H397V767Z" />
<glyph unicode="&#xc5;" glyph-name="Aring" horiz-adv-x="593" d="M275 714H323L605 0H558L468 229H126L35 0H-12L275 714ZM140 267H454L301 671H299L140 267ZM192 787T192 828T221 898T291 927T361 898T390 828T361 758T291 729T221 758ZM219 858T219 828T240
777T291 756T342 777T363 828T342 879T291 900T240 879Z" />
<glyph unicode="&#xc6;" glyph-name="AE" horiz-adv-x="870" d="M-9 0L364 714H854V676H475V390H825V352H475V38H855V0H431V254H163L31 0H-9ZM431 292V676H384L183 292H431Z" />
<glyph unicode="&#xc7;" glyph-name="Ccedilla" horiz-adv-x="704" d="M663 501H619Q605 589 537 641T376 693Q240 693 160 597T80 357T160 118T376 21Q478 21 551 98T631 278H675Q663 150 579 67T376 -17H371L338 -56L340 -58Q360 -49 377 -49Q408 -49 430 -67T452
-122Q452 -196 350 -196Q300 -196 260 -175L271 -151Q320 -169 351 -169Q377 -169 395 -158T414 -122Q414 -100 398 -88T365 -76Q338 -76 312 -88L296 -75L340 -15Q199 -3 118 101T36 357Q36 519 128 625T376 731Q447 731 502 708T586 654T634 586T657 530T663
501Z" />
<glyph unicode="&#xc8;" glyph-name="Egrave" horiz-adv-x="560" d="M107 38H548V0H63V714H543V676H107V390H517V352H107V38ZM338 764H301L167 904H218L338 764Z" />
<glyph unicode="&#xc9;" glyph-name="Eacute" horiz-adv-x="560" d="M107 38H548V0H63V714H543V676H107V390H517V352H107V38ZM223 764L343 904H394L260 764H223Z" />
<glyph unicode="&#xca;" glyph-name="Ecircumflex" horiz-adv-x="560" d="M107 38H548V0H63V714H543V676H107V390H517V352H107V38ZM260 904H300L416 764H378L280 879L183 764H145L260 904Z" />
<glyph unicode="&#xcb;" glyph-name="Edieresis" horiz-adv-x="560" d="M107 38H548V0H63V714H543V676H107V390H517V352H107V38ZM233 767H189V870H233V767ZM391 767H347V870H391V767Z" />
<glyph unicode="&#xcc;" glyph-name="Igrave" horiz-adv-x="170" d="M63 0V714H107V0H63ZM143 764H106L-28 904H23L143 764Z" />
<glyph unicode="&#xcd;" glyph-name="Iacute" horiz-adv-x="170" d="M63 0V714H107V0H63ZM28 764L148 904H199L65 764H28Z" />
<glyph unicode="&#xce;" glyph-name="Icircumflex" horiz-adv-x="170" d="M63 0V714H107V0H63ZM65 904H105L221 764H183L85 879L-12 764H-50L65 904Z" />
<glyph unicode="&#xcf;" glyph-name="Idieresis" horiz-adv-x="170" d="M63 0V714H107V0H63ZM28 767H-16V870H28V767ZM186 767H142V870H186V767Z" />
<glyph unicode="&#xd0;" glyph-name="Eth" horiz-adv-x="667" d="M63 396V714H297Q389 714 455 685T558 603T610 491T627 358Q627 198 543 99T295 0H63V363H-5V396H63ZM107 396H371V363H107V38H299Q341 38 379 47T456 80T521 138T566 230T583 358Q583 441 562
502T511 596T438 648T362 671T290 676H107V396Z" />
<glyph unicode="&#xd1;" glyph-name="Ntilde" horiz-adv-x="678" d="M63 0V714H118L569 59H571V714H615V0H563L109 660H107V0H63ZM224 775H195Q198 810 217 837Q238 865 272 865Q292 865 342 838Q347 835 359 828T377 818T393 811T410 808Q429 808 440 825T455
865H484Q479 825 463 804Q441 775 408 775Q386 775 339 804Q293 832 269 832Q233 832 224 775Z" />
<glyph unicode="&#xd2;" glyph-name="Ograve" horiz-adv-x="741" d="M710 518T710 357T619 90T371 -17T123 89T31 357T123 625T371 731T618 625ZM75 500T75 357T155 118T371 21Q506 21 586 117T666 357T586 596T371 693Q235 693 155 597ZM428 764H391L257 904H308L428
764Z" />
<glyph unicode="&#xd3;" glyph-name="Oacute" horiz-adv-x="741" d="M710 518T710 357T619 90T371 -17T123 89T31 357T123 625T371 731T618 625ZM75 500T75 357T155 118T371 21Q506 21 586 117T666 357T586 596T371 693Q235 693 155 597ZM313 764L433 904H484L350
764H313Z" />
<glyph unicode="&#xd4;" glyph-name="Ocircumflex" horiz-adv-x="741" d="M710 518T710 357T619 90T371 -17T123 89T31 357T123 625T371 731T618 625ZM75 500T75 357T155 118T371 21Q506 21 586 117T666 357T586 596T371 693Q235 693 155 597ZM350 904H390L506
764H468L370 879L273 764H235L350 904Z" />
<glyph unicode="&#xd5;" glyph-name="Otilde" horiz-adv-x="741" d="M710 518T710 357T619 90T371 -17T123 89T31 357T123 625T371 731T618 625ZM75 500T75 357T155 118T371 21Q506 21 586 117T666 357T586 596T371 693Q235 693 155 597ZM255 775H226Q229 810
248 837Q269 865 303 865Q323 865 373 838Q378 835 390 828T408 818T424 811T441 808Q460 808 471 825T486 865H515Q510 825 494 804Q472 775 439 775Q417 775 370 804Q324 832 300 832Q264 832 255 775Z" />
<glyph unicode="&#xd6;" glyph-name="Odieresis" horiz-adv-x="741" d="M710 518T710 357T619 90T371 -17T123 89T31 357T123 625T371 731T618 625ZM75 500T75 357T155 118T371 21Q506 21 586 117T666 357T586 596T371 693Q235 693 155 597ZM313 767H269V870H313V767ZM471
767H427V870H471V767Z" />
<glyph unicode="&#xd7;" glyph-name="multiply" horiz-adv-x="600" d="M79 58L273 252L79 447L105 474L300 279L494 474L521 447L327 252L521 58L494 31L300 226L105 31L79 58Z" />
<glyph unicode="&#xd8;" glyph-name="Oslash" horiz-adv-x="741" d="M598 582L165 108Q246 21 371 21Q506 21 586 117T666 357Q666 489 598 582ZM143 134L575 609Q493 693 371 693Q235 693 155 597T75 357Q75 225 143 134ZM34 16L113 102Q31 204 31 357Q31 519
123 625T371 731Q512 731 603 640L671 714L697 690L627 614Q710 513 710 357Q710 196 619 90T371 -17Q226 -17 136 76L60 -8L34 16Z" />
<glyph unicode="&#xd9;" glyph-name="Ugrave" horiz-adv-x="672" d="M63 714H107V286Q107 254 110 225T126 157T162 89T228 41T331 21Q456 21 510 89T565 286V714H609V286Q609 -17 331 -17Q63 -17 63 286V714ZM394 764H357L223 904H274L394 764Z" />
<glyph unicode="&#xda;" glyph-name="Uacute" horiz-adv-x="672" d="M63 714H107V286Q107 254 110 225T126 157T162 89T228 41T331 21Q456 21 510 89T565 286V714H609V286Q609 -17 331 -17Q63 -17 63 286V714ZM279 764L399 904H450L316 764H279Z" />
<glyph unicode="&#xdb;" glyph-name="Ucircumflex" horiz-adv-x="672" d="M63 714H107V286Q107 254 110 225T126 157T162 89T228 41T331 21Q456 21 510 89T565 286V714H609V286Q609 -17 331 -17Q63 -17 63 286V714ZM316 904H356L472 764H434L336 879L239 764H201L316
904Z" />
<glyph unicode="&#xdc;" glyph-name="Udieresis" horiz-adv-x="672" d="M63 714H107V286Q107 254 110 225T126 157T162 89T228 41T331 21Q456 21 510 89T565 286V714H609V286Q609 -17 331 -17Q63 -17 63 286V714ZM279 767H235V870H279V767ZM437 767H393V870H437V767Z" />
<glyph unicode="&#xdd;" glyph-name="Yacute" horiz-adv-x="574" d="M287 336L546 714H595L308 299V0H264V299L-21 714H29L287 336ZM230 764L350 904H401L267 764H230Z" />
<glyph unicode="&#xde;" glyph-name="Thorn" horiz-adv-x="593" d="M63 0V714H107V594H367Q395 594 420 590T474 573T525 539T561 481T575 395Q575 301 517 250T351 198H107V0H63ZM107 556V236H358Q447 236 489 283T531 396Q531 420 525 444T502 495T450 539T364
556H107Z" />
<glyph unicode="&#xdf;" glyph-name="germandbls" horiz-adv-x="500" d="M207 379V412Q286 412 338 448T390 560Q390 623 348 658T240 693Q96 693 96 537V0H58V537Q58 726 240 726Q323 726 375 684T428 560Q428 429 309 403V401Q385 392 424 343T463 214Q463 159
448 118T411 55T359 20T307 4T262 0H207V33H245Q267 33 286 35T333 49T379 78T411 132T425 214Q425 306 368 342T207 379Z" />
<glyph unicode="&#xe0;" glyph-name="agrave" horiz-adv-x="500" d="M397 196V292Q386 280 364 273T322 263T266 258T211 252Q140 244 105 217T70 133Q70 84 105 53T205 21Q254 21 291 37T347 74T379 123T394 167T397 196ZM435 392V95Q435 75 436 65T445 44T469
33Q479 33 497 36V4Q475 0 466 0Q425 0 411 19T397 75V102H395Q376 53 325 21T204 -12Q32 -12 32 133Q32 168 44 194T74 236T118 263T168 278T221 285Q266 288 293 291T342 300T373 311T389 330T397 355T398 392Q398 403 392 418T371 451T327 481T255 493Q185 493
143 458T97 356H59Q63 440 113 483T255 526Q435 526 435 392ZM308 591H271L137 731H188L308 591Z" />
<glyph unicode="&#xe1;" glyph-name="aacute" horiz-adv-x="500" d="M397 196V292Q386 280 364 273T322 263T266 258T211 252Q140 244 105 217T70 133Q70 84 105 53T205 21Q254 21 291 37T347 74T379 123T394 167T397 196ZM435 392V95Q435 75 436 65T445 44T469
33Q479 33 497 36V4Q475 0 466 0Q425 0 411 19T397 75V102H395Q376 53 325 21T204 -12Q32 -12 32 133Q32 168 44 194T74 236T118 263T168 278T221 285Q266 288 293 291T342 300T373 311T389 330T397 355T398 392Q398 403 392 418T371 451T327 481T255 493Q185 493
143 458T97 356H59Q63 440 113 483T255 526Q435 526 435 392ZM193 591L313 731H364L230 591H193Z" />
<glyph unicode="&#xe2;" glyph-name="acircumflex" horiz-adv-x="500" d="M397 196V292Q386 280 364 273T322 263T266 258T211 252Q140 244 105 217T70 133Q70 84 105 53T205 21Q254 21 291 37T347 74T379 123T394 167T397 196ZM435 392V95Q435 75 436 65T445
44T469 33Q479 33 497 36V4Q475 0 466 0Q425 0 411 19T397 75V102H395Q376 53 325 21T204 -12Q32 -12 32 133Q32 168 44 194T74 236T118 263T168 278T221 285Q266 288 293 291T342 300T373 311T389 330T397 355T398 392Q398 403 392 418T371 451T327 481T255 493Q185
493 143 458T97 356H59Q63 440 113 483T255 526Q435 526 435 392ZM230 731H270L386 591H348L250 706L153 591H115L230 731Z" />
<glyph unicode="&#xe3;" glyph-name="atilde" horiz-adv-x="500" d="M397 196V292Q386 280 364 273T322 263T266 258T211 252Q140 244 105 217T70 133Q70 84 105 53T205 21Q254 21 291 37T347 74T379 123T394 167T397 196ZM435 392V95Q435 75 436 65T445 44T469
33Q479 33 497 36V4Q475 0 466 0Q425 0 411 19T397 75V102H395Q376 53 325 21T204 -12Q32 -12 32 133Q32 168 44 194T74 236T118 263T168 278T221 285Q266 288 293 291T342 300T373 311T389 330T397 355T398 392Q398 403 392 418T371 451T327 481T255 493Q185 493
143 458T97 356H59Q63 440 113 483T255 526Q435 526 435 392ZM135 602H106Q109 637 128 664Q149 692 183 692Q203 692 253 665Q258 662 270 655T288 645T304 638T321 635Q340 635 351 652T366 692H395Q390 652 374 631Q352 602 319 602Q297 602 250 631Q204 659
180 659Q144 659 135 602Z" />
<glyph unicode="&#xe4;" glyph-name="adieresis" horiz-adv-x="500" d="M397 196V292Q386 280 364 273T322 263T266 258T211 252Q140 244 105 217T70 133Q70 84 105 53T205 21Q254 21 291 37T347 74T379 123T394 167T397 196ZM435 392V95Q435 75 436 65T445 44T469
33Q479 33 497 36V4Q475 0 466 0Q425 0 411 19T397 75V102H395Q376 53 325 21T204 -12Q32 -12 32 133Q32 168 44 194T74 236T118 263T168 278T221 285Q266 288 293 291T342 300T373 311T389 330T397 355T398 392Q398 403 392 418T371 451T327 481T255 493Q185 493
143 458T97 356H59Q63 440 113 483T255 526Q435 526 435 392ZM193 594H149V697H193V594ZM351 594H307V697H351V594Z" />
<glyph unicode="&#xe5;" glyph-name="aring" horiz-adv-x="500" d="M397 196V292Q386 280 364 273T322 263T266 258T211 252Q140 244 105 217T70 133Q70 84 105 53T205 21Q254 21 291 37T347 74T379 123T394 167T397 196ZM435 392V95Q435 75 436 65T445 44T469
33Q479 33 497 36V4Q475 0 466 0Q425 0 411 19T397 75V102H395Q376 53 325 21T204 -12Q32 -12 32 133Q32 168 44 194T74 236T118 263T168 278T221 285Q266 288 293 291T342 300T373 311T389 330T397 355T398 392Q398 403 392 418T371 451T327 481T255 493Q185 493
143 458T97 356H59Q63 440 113 483T255 526Q435 526 435 392ZM151 599T151 640T180 710T250 739T320 710T349 640T320 570T250 541T180 570ZM178 670T178 640T199 589T250 568T301 589T322 640T301 691T250 712T199 691Z" />
<glyph unicode="&#xe6;" glyph-name="ae" horiz-adv-x="889" d="M444 285H818Q820 371 769 432T633 493Q545 493 498 434T444 285ZM406 201V289H404Q399 280 388 275T354 266T315 261T265 257T215 253Q70 244 70 131Q70 76 113 49T216 21Q291 21 348 73T406 201ZM856
252H445Q438 153 488 87T633 21Q706 21 753 60T812 171H850Q837 86 779 37T633 -12Q555 -12 500 26T427 137H425Q400 68 345 28T216 -12Q137 -12 85 24T32 131Q32 175 49 206T96 252T155 275T219 283Q236 285 263 286T308 289T347 295T381 308T400 332T406 373Q406
493 256 493Q184 493 141 459T92 353H54Q60 440 113 483T256 526Q425 526 436 395H438Q485 526 633 526Q746 526 806 447T856 252Z" />
<glyph unicode="&#xe7;" glyph-name="ccedilla" horiz-adv-x="519" d="M481 355H443Q438 421 390 457T269 493Q177 493 124 425T71 262Q71 153 122 87T269 21Q340 21 389 65T448 181H486Q474 95 419 45T284 -11L245 -56L247 -58Q267 -49 284 -49Q315 -49 337 -67T359
-122Q359 -196 257 -196Q207 -196 167 -175L178 -151Q228 -169 258 -169Q284 -169 302 -158T321 -122Q321 -100 305 -88T272 -76Q245 -76 219 -88L203 -75L251 -11Q142 -5 88 72T33 262T96 450T269 526Q357 526 415 483T481 355Z" />
<glyph unicode="&#xe8;" glyph-name="egrave" horiz-adv-x="519" d="M488 252H73Q71 155 121 88T262 21Q335 21 383 62T446 174H484Q469 84 412 36T262 -12Q154 -12 94 62T35 248Q33 362 92 444T262 526Q377 526 435 448T488 252ZM73 285H450Q448 371 398 432T262
493Q181 493 131 431T73 285ZM319 591H282L148 731H199L319 591Z" />
<glyph unicode="&#xe9;" glyph-name="eacute" horiz-adv-x="519" d="M488 252H73Q71 155 121 88T262 21Q335 21 383 62T446 174H484Q469 84 412 36T262 -12Q154 -12 94 62T35 248Q33 362 92 444T262 526Q377 526 435 448T488 252ZM73 285H450Q448 371 398 432T262
493Q181 493 131 431T73 285ZM204 591L324 731H375L241 591H204Z" />
<glyph unicode="&#xea;" glyph-name="ecircumflex" horiz-adv-x="519" d="M488 252H73Q71 155 121 88T262 21Q335 21 383 62T446 174H484Q469 84 412 36T262 -12Q154 -12 94 62T35 248Q33 362 92 444T262 526Q377 526 435 448T488 252ZM73 285H450Q448 371 398
432T262 493Q181 493 131 431T73 285ZM241 731H281L397 591H359L261 706L164 591H126L241 731Z" />
<glyph unicode="&#xeb;" glyph-name="edieresis" horiz-adv-x="519" d="M488 252H73Q71 155 121 88T262 21Q335 21 383 62T446 174H484Q469 84 412 36T262 -12Q154 -12 94 62T35 248Q33 362 92 444T262 526Q377 526 435 448T488 252ZM73 285H450Q448 371 398 432T262
493Q181 493 131 431T73 285ZM204 594H160V697H204V594ZM362 594H318V697H362V594Z" />
<glyph unicode="&#xec;" glyph-name="igrave" horiz-adv-x="168" d="M103 0H65V514H103V0ZM142 591H105L-29 731H22L142 591Z" />
<glyph unicode="&#xed;" glyph-name="iacute" horiz-adv-x="168" d="M103 0H65V514H103V0ZM27 591L147 731H198L64 591H27Z" />
<glyph unicode="&#xee;" glyph-name="icircumflex" horiz-adv-x="168" d="M103 0H65V514H103V0ZM64 731H104L220 591H182L84 706L-13 591H-51L64 731Z" />
<glyph unicode="&#xef;" glyph-name="idieresis" horiz-adv-x="168" d="M103 0H65V514H103V0ZM27 594H-17V697H27V594ZM185 594H141V697H185V594Z" />
<glyph unicode="&#xf0;" glyph-name="eth" horiz-adv-x="537" d="M362 473T269 473T123 408T70 249Q70 154 121 88T269 21Q366 21 416 86T466 249Q466 342 414 407ZM146 582L254 642Q199 684 151 707L179 731Q239 699 287 660L402 724L422 702L313 641Q504 488
504 249Q504 135 443 62T269 -12Q153 -12 93 61T32 249Q32 358 95 432T269 506Q371 506 432 432L434 434Q392 533 279 622L167 560L146 582Z" />
<glyph unicode="&#xf1;" glyph-name="ntilde" horiz-adv-x="519" d="M56 0V514H94V404H96Q115 460 166 493T280 526Q323 526 356 516T408 486T439 447T456 399T462 356T463 318V0H425V325Q425 493 279 493Q194 493 144 434T94 278V0H56ZM144 602H115Q118 637 137
664Q158 692 192 692Q212 692 262 665Q267 662 279 655T297 645T313 638T330 635Q349 635 360 652T375 692H404Q399 652 383 631Q361 602 328 602Q306 602 259 631Q213 659 189 659Q153 659 144 602Z" />
<glyph unicode="&#xf2;" glyph-name="ograve" horiz-adv-x="537" d="M32 143T32 257T95 448T268 526T440 449T504 257T441 66T268 -12T96 65ZM70 355T70 257T123 90T268 21T413 90T466 257T413 424T268 493T123 424ZM326 591H289L155 731H206L326 591Z" />
<glyph unicode="&#xf3;" glyph-name="oacute" horiz-adv-x="537" d="M32 143T32 257T95 448T268 526T440 449T504 257T441 66T268 -12T96 65ZM70 355T70 257T123 90T268 21T413 90T466 257T413 424T268 493T123 424ZM211 591L331 731H382L248 591H211Z" />
<glyph unicode="&#xf4;" glyph-name="ocircumflex" horiz-adv-x="537" d="M32 143T32 257T95 448T268 526T440 449T504 257T441 66T268 -12T96 65ZM70 355T70 257T123 90T268 21T413 90T466 257T413 424T268 493T123 424ZM248 731H288L404 591H366L268 706L171
591H133L248 731Z" />
<glyph unicode="&#xf5;" glyph-name="otilde" horiz-adv-x="537" d="M32 143T32 257T95 448T268 526T440 449T504 257T441 66T268 -12T96 65ZM70 355T70 257T123 90T268 21T413 90T466 257T413 424T268 493T123 424ZM153 602H124Q127 637 146 664Q167 692 201
692Q221 692 271 665Q276 662 288 655T306 645T322 638T339 635Q358 635 369 652T384 692H413Q408 652 392 631Q370 602 337 602Q315 602 268 631Q222 659 198 659Q162 659 153 602Z" />
<glyph unicode="&#xf6;" glyph-name="odieresis" horiz-adv-x="537" d="M32 143T32 257T95 448T268 526T440 449T504 257T441 66T268 -12T96 65ZM70 355T70 257T123 90T268 21T413 90T466 257T413 424T268 493T123 424ZM211 594H167V697H211V594ZM369 594H325V697H369V594Z"
/>
<glyph unicode="&#xf7;" glyph-name="divide" horiz-adv-x="600" d="M552 233H48V271H552V233ZM250 452Q250 474 265 489T301 504T337 489T353 452Q353 431 338 416T301 401T265 416T250 452ZM250 51Q250 73 265 88T301 103T337 88T353 51Q353 30 338 15T301 0T265
15T250 51Z" />
<glyph unicode="&#xf8;" glyph-name="oslash" horiz-adv-x="537" d="M109 112L408 428Q356 493 268 493Q176 493 123 424T70 257Q70 172 109 112ZM428 400L129 84Q182 21 268 21Q360 21 413 90T466 257Q466 340 428 400ZM513 490L455 428Q504 358 504 257Q504
143 441 66T268 -12Q167 -12 103 57L49 0L25 23L82 84Q32 154 32 257Q32 371 95 448T268 526Q373 526 434 455L489 513L513 490Z" />
<glyph unicode="&#xf9;" glyph-name="ugrave" horiz-adv-x="519" d="M463 514V0H425V110H423Q404 54 353 21T239 -12Q196 -12 163 -2T111 28T80 67T63 115T57 158T56 196V514H94V189Q94 21 240 21Q325 21 375 80T425 236V514H463ZM317 591H280L146 731H197L317 591Z" />
<glyph unicode="&#xfa;" glyph-name="uacute" horiz-adv-x="519" d="M463 514V0H425V110H423Q404 54 353 21T239 -12Q196 -12 163 -2T111 28T80 67T63 115T57 158T56 196V514H94V189Q94 21 240 21Q325 21 375 80T425 236V514H463ZM202 591L322 731H373L239 591H202Z" />
<glyph unicode="&#xfb;" glyph-name="ucircumflex" horiz-adv-x="519" d="M463 514V0H425V110H423Q404 54 353 21T239 -12Q196 -12 163 -2T111 28T80 67T63 115T57 158T56 196V514H94V189Q94 21 240 21Q325 21 375 80T425 236V514H463ZM239 731H279L395 591H357L259
706L162 591H124L239 731Z" />
<glyph unicode="&#xfc;" glyph-name="udieresis" horiz-adv-x="519" d="M463 514V0H425V110H423Q404 54 353 21T239 -12Q196 -12 163 -2T111 28T80 67T63 115T57 158T56 196V514H94V189Q94 21 240 21Q325 21 375 80T425 236V514H463ZM202 594H158V697H202V594ZM360
594H316V697H360V594Z" />
<glyph unicode="&#xfd;" glyph-name="yacute" horiz-adv-x="444" d="M209 3L-6 514H39L230 45L406 514H449L229 -55Q192 -143 169 -161Q150 -176 124 -180T49 -184V-151Q90 -151 113 -144T156 -118Q172 -102 209 3ZM165 591L285 731H336L202 591H165Z" />
<glyph unicode="&#xfe;" glyph-name="thorn" horiz-adv-x="556" d="M292 21Q387 21 436 87T485 256Q485 354 437 423T292 493T150 425T104 256Q104 207 113 167T143 93T202 40T292 21ZM65 -184V714H103V396H105Q120 444 168 485T292 526Q405 526 464 449T523 256Q523
134 465 61T292 -12Q225 -12 176 17T105 107H103V-184H65Z" />
<glyph unicode="&#xff;" glyph-name="ydieresis" horiz-adv-x="444" d="M209 3L-6 514H39L230 45L406 514H449L229 -55Q192 -143 169 -161Q150 -176 124 -180T49 -184V-151Q90 -151 113 -144T156 -118Q172 -102 209 3ZM165 594H121V697H165V594ZM323 594H279V697H323V594Z"
/>
<glyph unicode="&#x131;" glyph-name="dotlessi" horiz-adv-x="168" d="M103 0H65V514H103V0Z" />
<glyph unicode="&#x141;" glyph-name="Lslash" horiz-adv-x="500" d="M63 714H107V331L342 474V438L107 296V38H512V0H63V269L-22 216V254L63 305V714Z" />
<glyph unicode="&#x142;" glyph-name="lslash" horiz-adv-x="168" d="M65 334V714H103V364L168 415V382L103 331V0H65V301L0 250V283L65 334Z" />
<glyph unicode="&#x152;" glyph-name="OE" horiz-adv-x="1056" d="M573 127V578Q573 611 516 649Q451 693 372 693Q233 693 154 595T75 354Q75 210 149 116T363 21Q439 21 489 48Q516 61 544 84T573 127ZM617 676V390H995V352H617V38H1041V0H573V66H571Q544 31
489 7T360 -17Q206 -17 119 87T31 354Q31 457 69 541T185 678T368 731Q426 731 481 710T573 648V714H1039V676H617Z" />
<glyph unicode="&#x153;" glyph-name="oe" horiz-adv-x="889" d="M252 21Q302 21 338 41T392 97T418 170T426 250Q426 317 411 369T356 457T253 493Q203 493 166 472T108 413T79 336T70 250Q70 152 115 87T252 21ZM857 252H464Q458 155 504 88T645 21Q713 21 756
60T815 169H853Q834 84 782 36T645 -12Q564 -12 511 27T445 139H443Q403 -12 251 -12Q138 -12 85 62T32 250Q32 368 88 447T254 526Q328 526 378 486T444 374H446Q487 526 645 526Q755 526 809 447T857 252ZM464 285H819Q819 372 774 432T645 493Q558 493 510 432T464
285Z" />
<glyph unicode="&#x160;" glyph-name="Scaron" horiz-adv-x="630" d="M574 510H530Q526 599 465 646T301 693Q268 693 236 686T174 662T124 614T105 541Q105 456 202 419Q239 404 348 382Q393 373 421 366T485 343T542 308T577 257T592 184Q592 131 569 91T507
28T427 -6T341 -17Q205 -17 122 44T40 236H84Q78 126 151 74T341 21Q389 21 433 35T513 87T548 184Q548 218 535 244T501 286T448 314T386 334T315 349Q308 350 304 351Q266 359 243 364T188 380T137 404T98 436T70 481T61 541Q61 636 133 683T301 731Q420 731
494 677T574 510ZM330 764H290L175 904H213L310 789L408 904H446L330 764Z" />
<glyph unicode="&#x161;" glyph-name="scaron" horiz-adv-x="481" d="M36 171H74Q78 101 125 61T244 21Q272 21 298 26T350 42T391 75T407 130Q407 197 330 224Q306 233 231 248Q190 256 165 264T111 288T68 330T54 394Q54 442 83 473T152 515T240 526Q327 526
378 486T430 362H392Q391 429 350 461T240 493Q180 493 136 469T92 394Q92 367 104 348T140 317T189 298T247 284Q258 282 263 281Q308 273 335 265T391 240T432 196T445 130Q445 90 427 61T378 17T314 -5T244 -12Q153 -12 96 36T36 171ZM254 591H214L99 731H137L234
616L332 731H370L254 591Z" />
<glyph unicode="&#x178;" glyph-name="Ydieresis" horiz-adv-x="574" d="M287 336L546 714H595L308 299V0H264V299L-21 714H29L287 336ZM230 767H186V870H230V767ZM388 767H344V870H388V767Z" />
<glyph unicode="&#x17d;" glyph-name="Zcaron" horiz-adv-x="537" d="M28 676V714H529V676L45 38H538V0H-1V38L481 676H28ZM282 764H242L127 904H165L262 789L360 904H398L282 764Z" />
<glyph unicode="&#x17e;" glyph-name="zcaron" horiz-adv-x="426" d="M55 33H417V0H9V36L354 481H36V514H401V478L55 33ZM227 591H187L72 731H110L207 616L305 731H343L227 591Z" />
<glyph unicode="&#x192;" glyph-name="florin" horiz-adv-x="556" d="M5 -178L12 -141Q40 -146 62 -146Q141 -146 167 -8L246 396H134L141 429H252L285 598Q297 656 332 693T432 731Q467 731 493 725L485 687Q454 693 431 693Q347 693 326 593L294 429H414L409
396H288L208 -13Q202 -43 195 -65T172 -118T127 -166T58 -184Q34 -184 5 -178Z" />
<glyph unicode="&#x2c6;" glyph-name="circumflex" horiz-adv-x="167" d="M63 731H103L219 591H181L83 706L-14 591H-52L63 731Z" />
<glyph unicode="&#x2c7;" glyph-name="caron" horiz-adv-x="167" d="M97 591H57L-58 731H-20L77 616L175 731H213L97 591Z" />
<glyph unicode="&#x2c9;" glyph-name="uni02C9" horiz-adv-x="167" d="M205 629H-37V662H205V629Z" />
<glyph unicode="&#x2d8;" glyph-name="breve" horiz-adv-x="167" d="M186 731H219Q213 682 175 647T88 611Q32 611 -6 643T-52 731H-19Q-7 684 24 662T87 644Q124 643 152 668T186 731Z" />
<glyph unicode="&#x2d9;" glyph-name="dotaccent" horiz-adv-x="167" d="M105 594H61V697H105V594Z" />
<glyph unicode="&#x2da;" glyph-name="ring" horiz-adv-x="167" d="M-16 599T-16 640T13 710T83 739T153 710T182 640T153 570T83 541T13 570ZM11 670T11 640T32 589T83 568T134 589T155 640T134 691T83 712T32 691Z" />
<glyph unicode="&#x2db;" glyph-name="ogonek" horiz-adv-x="167" d="M112 0H136Q82 -46 64 -73T46 -135Q46 -153 61 -165T93 -178Q132 -178 155 -138L180 -146Q169 -174 145 -192T89 -211Q2 -211 2 -135Q2 -120 8 -102T41 -55T112 0Z" />
<glyph unicode="&#x2dc;" glyph-name="tilde" horiz-adv-x="167" d="M-32 602H-61Q-58 637 -39 664Q-18 692 16 692Q36 692 86 665Q91 662 103 655T121 645T137 638T154 635Q173 635 184 652T199 692H228Q223 652 207 631Q185 602 152 602Q130 602 83 631Q37 659
13 659Q-23 659 -32 602Z" />
<glyph unicode="&#x2dd;" glyph-name="hungarumlaut" horiz-adv-x="167" d="M-19 591H-56L64 731H115L-19 591ZM139 591H102L222 731H273L139 591Z" />
<glyph unicode="&#x3a9;" glyph-name="uni03A9" horiz-adv-x="733" d="M218 30V33Q154 87 113 171T72 361Q72 513 158 606T369 699Q495 699 577 602T660 363Q660 254 617 167T512 33V30H674V0H451V22Q524 68 574 158T625 360Q625 431 598 500T510 619T369 669Q252
669 180 579T107 359Q107 252 159 160T281 22V0H58V30H218Z" />
<glyph unicode="&#x3bc;" glyph-name="uni03BC" horiz-adv-x="519" d="M463 514V0H425V110H423Q404 54 353 21T239 -12Q139 -12 96 44H94V-184H56V514H94V189Q94 21 240 21Q325 21 375 80T425 236V514H463Z" />
<glyph unicode="&#x3c0;" glyph-name="pi" horiz-adv-x="548" d="M519 477H430V145Q430 46 446 0H412Q396 24 396 138V477H180Q174 360 151 211T100 0H64Q93 70 116 213T145 477Q59 477 22 463L13 486Q55 508 141 508H524L519 477Z" />
<glyph unicode="&#x2013;" glyph-name="endash" horiz-adv-x="500" d="M0 253V291H500V253H0Z" />
<glyph unicode="&#x2014;" glyph-name="emdash" horiz-adv-x="1000" d="M130 253V291H870V253H130Z" />
<glyph unicode="&#x2018;" glyph-name="quoteleft" horiz-adv-x="204" d="M143 714V681Q109 666 109 588H130V485H79V588Q79 690 143 714Z" />
<glyph unicode="&#x2019;" glyph-name="quoteright" horiz-adv-x="204" d="M125 714V611Q125 509 61 485V518Q95 533 95 611H74V714H125Z" />
<glyph unicode="&#x201a;" glyph-name="quotesinglbase" horiz-adv-x="204" d="M125 103V0Q125 -102 61 -126V-93Q95 -78 95 0H74V103H125Z" />
<glyph unicode="&#x201c;" glyph-name="quotedblleft" horiz-adv-x="315" d="M128 714V681Q94 666 94 588H115V485H64V588Q64 690 128 714ZM254 714V681Q220 666 220 588H241V485H190V588Q190 690 254 714Z" />
<glyph unicode="&#x201d;" glyph-name="quotedblright" horiz-adv-x="315" d="M251 714V611Q251 509 187 485V518Q221 533 221 611H200V714H251ZM125 714V611Q125 509 61 485V518Q95 533 95 611H74V714H125Z" />
<glyph unicode="&#x201e;" glyph-name="quotedblbase" horiz-adv-x="315" d="M251 103V0Q251 -102 187 -126V-93Q221 -78 221 0H200V103H251ZM125 103V0Q125 -102 61 -126V-93Q95 -78 95 0H74V103H125Z" />
<glyph unicode="&#x2020;" glyph-name="dagger" horiz-adv-x="556" d="M54 514H259V714H297V514H502V481H297V-146H259V481H54V514Z" />
<glyph unicode="&#x2021;" glyph-name="daggerdbl" horiz-adv-x="556" d="M259 714H297V514H502V481H297V87H502V54H297V-146H259V54H54V87H259V481H54V514H259V714Z" />
<glyph unicode="&#x2022;" glyph-name="bullet" horiz-adv-x="500" d="M72 283T72 357T124 483T250 535T376 483T429 357T377 231T250 178T124 230Z" />
<glyph unicode="&#x2026;" glyph-name="ellipsis" horiz-adv-x="1000" d="M141 0V103H192V0H141ZM474 0V103H525V0H474ZM807 0V103H858V0H807Z" />
<glyph unicode="&#x2030;" glyph-name="perthousand" horiz-adv-x="1074" d="M527 -12Q452 -12 413 34T374 158Q374 230 416 278T527 326Q597 326 637 279T678 158Q678 82 638 35T527 -12ZM525 21Q579 21 609 59T640 158Q640 215 609 254T525 293Q471 293 442
256T412 158Q412 96 439 59T525 21ZM882 -12Q808 -12 769 34T730 158Q730 230 772 278T882 326Q952 326 993 279T1034 158Q1034 82 994 35T882 -12ZM882 21Q936 21 966 59T996 158Q996 215 966 254T882 293Q827 293 798 256T768 158Q768 96 796 59T882 21ZM193
702Q263 702 303 656T344 535Q344 459 304 412T193 364Q119 364 80 410T40 535Q40 607 82 654T193 702ZM192 669Q137 669 108 632T78 535Q78 473 106 435T192 397Q246 396 276 435T306 535Q306 592 276 630T192 669ZM105 -24L570 714H610L145 -24H105Z" />
<glyph unicode="&#x2039;" glyph-name="guilsinglleft" horiz-adv-x="259" d="M181 121L67 252V292L181 423V372L96 272L181 170V121Z" />
<glyph unicode="&#x203a;" glyph-name="guilsinglright" horiz-adv-x="259" d="M78 121V170L163 272L78 372V423L192 292V252L78 121Z" />
<glyph unicode="&#x2044;" glyph-name="fraction" horiz-adv-x="167" d="M-169 -24L296 714H336L-129 -24H-169Z" />
<glyph unicode="&#x20ac;" glyph-name="Euro" horiz-adv-x="556" d="M530 595L509 557Q493 611 445 642Q403 669 337 669Q243 669 188 613Q157 582 139 531T116 430H448L433 397H113Q109 354 113 301H396L381 268H117Q126 174 171 108Q230 21 341 21Q394 21 437
38Q485 56 522 99V53Q492 25 453 10Q400 -12 336 -12Q209 -12 139 86Q86 161 77 268H12L27 301H75Q70 352 75 397H12L27 430H77Q89 574 171 645Q237 702 337 702Q416 702 464 672Q510 643 530 595Z" />
<glyph unicode="&#x2113;" glyph-name="afii61289" horiz-adv-x="463" d="M413 123L436 108Q374 -6 265 -6Q188 -6 150 49T111 191V205L50 153L34 178Q107 243 111 247V533Q111 657 151 708T246 759T329 718T358 611Q358 441 143 233V207Q144 112 180 67T269 21Q317
21 355 51T413 123ZM143 541V274Q232 368 279 446T327 605Q327 730 242 730Q204 730 174 683T143 541Z" />
<glyph unicode="&#x2122;" glyph-name="trademark" horiz-adv-x="990" d="M404 714V681H261V302H229V681H85V714H404ZM542 714L694 368L846 714H905V302H873V681H870L703 302H685L518 681H515V302H483V714H542Z" />
<glyph unicode="&#x2126;" glyph-name="Omega" horiz-adv-x="733" d="M218 30V33Q154 87 113 171T72 361Q72 513 158 606T369 699Q495 699 577 602T660 363Q660 254 617 167T512 33V30H674V0H451V22Q524 68 574 158T625 360Q625 431 598 500T510 619T369 669Q252
669 180 579T107 359Q107 252 159 160T281 22V0H58V30H218Z" />
<glyph unicode="&#x212e;" glyph-name="estimated" horiz-adv-x="861" d="M827 335H184Q179 335 179 331V136Q179 124 188 114Q290 9 430 9Q584 9 686 127H743Q689 63 607 26T429 -11Q265 -11 149 93T33 345T149 597T429 702Q594 702 710 598T827 345V335ZM681
360V556Q681 570 671 579Q568 680 430 680Q291 680 189 576Q179 566 179 552V360Q179 354 184 354H677Q681 354 681 360Z" />
<glyph unicode="&#x2202;" glyph-name="partialdiff" horiz-adv-x="526" d="M101 690L83 714Q148 767 237 767Q333 767 402 672T472 397Q472 285 447 196T364 49T227 -8Q140 -8 93 57T46 215Q46 324 109 392T256 461Q322 461 369 425T436 353H437Q438 367 438
405Q438 557 378 647T236 738Q159 738 101 690ZM229 21H230Q310 21 363 101T430 304Q413 351 366 391T258 432Q187 432 135 370T82 219Q82 132 122 77T229 21Z" />
<glyph unicode="&#x2206;" glyph-name="increment" horiz-adv-x="643" d="M35 0V33L303 709H341L608 34V0H35ZM69 30H570L397 474Q391 490 361 563T323 663H318Q314 646 302 616T275 547T252 491L69 30Z" />
<glyph unicode="&#x220f;" glyph-name="product" horiz-adv-x="683" d="M656 656H540V-95H506V656H176V-95H143V656H27V687H656V656Z" />
<glyph unicode="&#x2211;" glyph-name="summation" horiz-adv-x="550" d="M525 -95H22V-69L313 294L37 663V687H510V656H89V652L355 297L72 -58V-61H525V-95Z" />
<glyph unicode="&#x2212;" glyph-name="minus" horiz-adv-x="600" d="M552 233H48V271H552V233Z" />
<glyph unicode="&#x2215;" glyph-name="uni2215" horiz-adv-x="167" d="M-169 -24L296 714H336L-129 -24H-169Z" />
<glyph unicode="&#x2219;" glyph-name="uni2219" horiz-adv-x="278" d="M85 296T85 317T101 354T139 371T177 355T194 317Q194 295 178 279T139 262Q118 262 102 279Z" />
<glyph unicode="&#x221a;" glyph-name="radical" horiz-adv-x="555" d="M549 811L329 -154H290L121 322L46 295L35 321L146 362L292 -47Q298 -67 308 -108H309Q310 -98 314 -78T320 -51L518 811H549Z" />
<glyph unicode="&#x221e;" glyph-name="infinity" horiz-adv-x="773" d="M720 287V286Q720 222 677 181T574 139Q542 139 510 157T456 195T388 262Q361 233 354 226T322 195T282 164T244 148T196 139Q137 139 95 181T53 283Q53 346 95 388T202 431Q229 431 254
422T306 390T347 352T391 306Q422 340 436 354T477 391T528 422T582 431Q646 431 683 391T720 287ZM201 168H202Q222 168 241 175T279 197T310 223T343 255T370 283Q311 351 281 372Q237 403 193 403Q144 403 115 367T87 282Q87 233 118 201T201 168ZM578 403H577Q552
403 525 389T481 359T439 318T408 286Q455 238 474 221T522 186T578 168Q627 168 657 203T687 284Q687 341 657 372T578 403Z" />
<glyph unicode="&#x222b;" glyph-name="integral'" horiz-adv-x="327" d="M315 817L303 792Q289 804 266 804Q234 804 215 782Q175 738 175 598Q175 523 181 342T188 86Q188 -53 141 -114Q112 -150 64 -150Q30 -150 8 -133L19 -106Q45 -119 66 -119Q95 -119 114
-95Q154 -44 154 88Q154 162 148 345T141 601Q141 680 152 726T190 799Q221 833 265 833Q292 833 315 817Z" />
<glyph unicode="&#x2248;" glyph-name="approxequal" horiz-adv-x="575" d="M502 410L521 394Q476 306 398 306Q383 306 371 308T339 318T313 330T276 350Q212 384 177 384Q143 384 120 364T73 308L52 322Q99 412 184 412Q206 412 226 406T272 384T301 368Q305
366 315 361T329 353T342 347T356 342T370 338T385 335T402 334Q433 334 456 352T502 410ZM502 252L521 236Q476 149 398 149Q378 149 357 155T324 167T276 192Q212 226 177 226Q120 226 73 150L52 165Q100 254 184 254Q201 254 219 249T249 239T278 224T301 211Q304
209 314 204T329 196T342 190T356 184T370 180T385 177T402 176Q433 176 456 194T502 252Z" />
<glyph unicode="&#x2260;" glyph-name="notequal" horiz-adv-x="575" d="M396 493L346 386H520V357H333L259 203H520V174H246L188 52L164 65L216 174H53V203H230L303 357H53V386H316L373 506L396 493Z" />
<glyph unicode="&#x2264;" glyph-name="lessequal" horiz-adv-x="575" d="M517 90L60 316V346L517 572V535L96 333V331L517 127V90ZM519 17H53V47H519V17Z" />
<glyph unicode="&#x2265;" glyph-name="greaterequal" horiz-adv-x="575" d="M60 572L517 346V316L60 90V127L480 330V332L60 535V572ZM519 17H53V47H519V17Z" />
<glyph unicode="&#x25ca;" glyph-name="lozenge" horiz-adv-x="557" d="M497 343L292 -43H263L58 343L263 730H292L497 343ZM462 342L296 652Q283 679 277 698H275Q269 676 256 652L93 345L259 34Q271 10 277 -10H280Q286 10 298 34L462 342Z" />
<glyph unicode="&#xfb01;" glyph-name="fi" horiz-adv-x="389" d="M0 481V514H92V620Q92 671 123 696T205 722Q225 722 250 717V684Q225 689 205 689Q130 689 130 617V514H237V481H130V0H92V481H0ZM286 611V714H324V611H286ZM286 0V514H324V0H286Z" />
<glyph unicode="&#xfb02;" glyph-name="fl" horiz-adv-x="389" d="M0 481V514H92V620Q92 671 123 696T205 722Q225 722 250 717V684Q225 689 205 689Q130 689 130 617V514H237V481H130V0H92V481H0ZM286 0V714H324V0H286Z" />
</font>
</defs>
</svg>
